﻿# Wavefront OBJ file automatically generated by Tiled2Unity

# Vertices (Count = 676)
v 0 -32 0
v -32 -32 0
v -32 0 0
v 0 0 0
v -64 -32 0
v -64 0 0
v -96 -32 0
v -96 0 0
v -128 -32 0
v -128 0 0
v -160 -32 0
v -160 0 0
v -192 -32 0
v -192 0 0
v -224 -32 0
v -224 0 0
v -256 -32 0
v -256 0 0
v -288 -32 0
v -288 0 0
v -320 -32 0
v -320 0 0
v -352 -32 0
v -352 0 0
v -384 -32 0
v -384 0 0
v -416 -32 0
v -416 0 0
v -448 -32 0
v -448 0 0
v -480 -32 0
v -480 0 0
v -512 -32 0
v -512 0 0
v -544 -32 0
v -544 0 0
v -576 -32 0
v -576 0 0
v -608 -32 0
v -608 0 0
v -640 -32 0
v -640 0 0
v -672 -32 0
v -672 0 0
v -704 -32 0
v -704 0 0
v -736 -32 0
v -736 0 0
v -768 -32 0
v -768 0 0
v -800 -32 0
v -800 0 0
v 0 -64 0
v -32 -64 0
v -64 -64 0
v -96 -64 0
v -128 -64 0
v -160 -64 0
v -192 -64 0
v -224 -64 0
v -256 -64 0
v -288 -64 0
v -320 -64 0
v -352 -64 0
v -384 -64 0
v -416 -64 0
v -448 -64 0
v -480 -64 0
v -512 -64 0
v -544 -64 0
v -576 -64 0
v -608 -64 0
v -640 -64 0
v -672 -64 0
v -704 -64 0
v -736 -64 0
v -768 -64 0
v -800 -64 0
v 0 -96 0
v -32 -96 0
v -64 -96 0
v -96 -96 0
v -128 -96 0
v -160 -96 0
v -192 -96 0
v -224 -96 0
v -256 -96 0
v -288 -96 0
v -320 -96 0
v -352 -96 0
v -384 -96 0
v -416 -96 0
v -448 -96 0
v -480 -96 0
v -512 -96 0
v -544 -96 0
v -576 -96 0
v -608 -96 0
v -640 -96 0
v -672 -96 0
v -704 -96 0
v -736 -96 0
v -768 -96 0
v -800 -96 0
v 0 -128 0
v -32 -128 0
v -64 -128 0
v -96 -128 0
v -128 -128 0
v -160 -128 0
v -192 -128 0
v -224 -128 0
v -256 -128 0
v -288 -128 0
v -320 -128 0
v -352 -128 0
v -384 -128 0
v -416 -128 0
v -448 -128 0
v -480 -128 0
v -512 -128 0
v -544 -128 0
v -576 -128 0
v -608 -128 0
v -640 -128 0
v -672 -128 0
v -704 -128 0
v -736 -128 0
v -768 -128 0
v -800 -128 0
v 0 -160 0
v -32 -160 0
v -64 -160 0
v -96 -160 0
v -128 -160 0
v -160 -160 0
v -192 -160 0
v -224 -160 0
v -256 -160 0
v -288 -160 0
v -320 -160 0
v -352 -160 0
v -384 -160 0
v -416 -160 0
v -448 -160 0
v -480 -160 0
v -512 -160 0
v -544 -160 0
v -576 -160 0
v -608 -160 0
v -640 -160 0
v -672 -160 0
v -704 -160 0
v -736 -160 0
v -768 -160 0
v -800 -160 0
v 0 -192 0
v -32 -192 0
v -64 -192 0
v -96 -192 0
v -128 -192 0
v -160 -192 0
v -192 -192 0
v -224 -192 0
v -256 -192 0
v -288 -192 0
v -320 -192 0
v -352 -192 0
v -384 -192 0
v -416 -192 0
v -448 -192 0
v -480 -192 0
v -512 -192 0
v -544 -192 0
v -576 -192 0
v -608 -192 0
v -640 -192 0
v -672 -192 0
v -704 -192 0
v -736 -192 0
v -768 -192 0
v -800 -192 0
v 0 -224 0
v -32 -224 0
v -64 -224 0
v -96 -224 0
v -128 -224 0
v -160 -224 0
v -192 -224 0
v -224 -224 0
v -256 -224 0
v -288 -224 0
v -320 -224 0
v -352 -224 0
v -384 -224 0
v -416 -224 0
v -448 -224 0
v -480 -224 0
v -512 -224 0
v -544 -224 0
v -576 -224 0
v -608 -224 0
v -640 -224 0
v -672 -224 0
v -704 -224 0
v -736 -224 0
v -768 -224 0
v -800 -224 0
v 0 -256 0
v -32 -256 0
v -64 -256 0
v -96 -256 0
v -128 -256 0
v -160 -256 0
v -192 -256 0
v -224 -256 0
v -256 -256 0
v -288 -256 0
v -320 -256 0
v -352 -256 0
v -384 -256 0
v -416 -256 0
v -448 -256 0
v -480 -256 0
v -512 -256 0
v -544 -256 0
v -576 -256 0
v -608 -256 0
v -640 -256 0
v -672 -256 0
v -704 -256 0
v -736 -256 0
v -768 -256 0
v -800 -256 0
v 0 -288 0
v -32 -288 0
v -64 -288 0
v -96 -288 0
v -128 -288 0
v -160 -288 0
v -192 -288 0
v -224 -288 0
v -256 -288 0
v -288 -288 0
v -320 -288 0
v -352 -288 0
v -384 -288 0
v -416 -288 0
v -448 -288 0
v -480 -288 0
v -512 -288 0
v -544 -288 0
v -576 -288 0
v -608 -288 0
v -640 -288 0
v -672 -288 0
v -704 -288 0
v -736 -288 0
v -768 -288 0
v -800 -288 0
v 0 -320 0
v -32 -320 0
v -64 -320 0
v -96 -320 0
v -128 -320 0
v -160 -320 0
v -192 -320 0
v -224 -320 0
v -256 -320 0
v -288 -320 0
v -320 -320 0
v -352 -320 0
v -384 -320 0
v -416 -320 0
v -448 -320 0
v -480 -320 0
v -512 -320 0
v -544 -320 0
v -576 -320 0
v -608 -320 0
v -640 -320 0
v -672 -320 0
v -704 -320 0
v -736 -320 0
v -768 -320 0
v -800 -320 0
v 0 -352 0
v -32 -352 0
v -64 -352 0
v -96 -352 0
v -128 -352 0
v -160 -352 0
v -192 -352 0
v -224 -352 0
v -256 -352 0
v -288 -352 0
v -320 -352 0
v -352 -352 0
v -384 -352 0
v -416 -352 0
v -448 -352 0
v -480 -352 0
v -512 -352 0
v -544 -352 0
v -576 -352 0
v -608 -352 0
v -640 -352 0
v -672 -352 0
v -704 -352 0
v -736 -352 0
v -768 -352 0
v -800 -352 0
v 0 -384 0
v -32 -384 0
v -64 -384 0
v -96 -384 0
v -128 -384 0
v -160 -384 0
v -192 -384 0
v -224 -384 0
v -256 -384 0
v -288 -384 0
v -320 -384 0
v -352 -384 0
v -384 -384 0
v -416 -384 0
v -448 -384 0
v -480 -384 0
v -512 -384 0
v -544 -384 0
v -576 -384 0
v -608 -384 0
v -640 -384 0
v -672 -384 0
v -704 -384 0
v -736 -384 0
v -768 -384 0
v -800 -384 0
v 0 -416 0
v -32 -416 0
v -64 -416 0
v -96 -416 0
v -128 -416 0
v -160 -416 0
v -192 -416 0
v -224 -416 0
v -256 -416 0
v -288 -416 0
v -320 -416 0
v -352 -416 0
v -384 -416 0
v -416 -416 0
v -448 -416 0
v -480 -416 0
v -512 -416 0
v -544 -416 0
v -576 -416 0
v -608 -416 0
v -640 -416 0
v -672 -416 0
v -704 -416 0
v -736 -416 0
v -768 -416 0
v -800 -416 0
v 0 -448 0
v -32 -448 0
v -64 -448 0
v -96 -448 0
v -128 -448 0
v -160 -448 0
v -192 -448 0
v -224 -448 0
v -256 -448 0
v -288 -448 0
v -320 -448 0
v -352 -448 0
v -384 -448 0
v -416 -448 0
v -448 -448 0
v -480 -448 0
v -512 -448 0
v -544 -448 0
v -576 -448 0
v -608 -448 0
v -640 -448 0
v -672 -448 0
v -704 -448 0
v -736 -448 0
v -768 -448 0
v -800 -448 0
v 0 -480 0
v -32 -480 0
v -64 -480 0
v -96 -480 0
v -128 -480 0
v -160 -480 0
v -192 -480 0
v -224 -480 0
v -256 -480 0
v -288 -480 0
v -320 -480 0
v -352 -480 0
v -384 -480 0
v -416 -480 0
v -448 -480 0
v -480 -480 0
v -512 -480 0
v -544 -480 0
v -576 -480 0
v -608 -480 0
v -640 -480 0
v -672 -480 0
v -704 -480 0
v -736 -480 0
v -768 -480 0
v -800 -480 0
v 0 -512 0
v -32 -512 0
v -64 -512 0
v -96 -512 0
v -128 -512 0
v -160 -512 0
v -192 -512 0
v -224 -512 0
v -256 -512 0
v -288 -512 0
v -320 -512 0
v -352 -512 0
v -384 -512 0
v -416 -512 0
v -448 -512 0
v -480 -512 0
v -512 -512 0
v -544 -512 0
v -576 -512 0
v -608 -512 0
v -640 -512 0
v -672 -512 0
v -704 -512 0
v -736 -512 0
v -768 -512 0
v -800 -512 0
v 0 -544 0
v -32 -544 0
v -64 -544 0
v -96 -544 0
v -128 -544 0
v -160 -544 0
v -192 -544 0
v -224 -544 0
v -256 -544 0
v -288 -544 0
v -320 -544 0
v -352 -544 0
v -384 -544 0
v -416 -544 0
v -448 -544 0
v -480 -544 0
v -512 -544 0
v -544 -544 0
v -576 -544 0
v -608 -544 0
v -640 -544 0
v -672 -544 0
v -704 -544 0
v -736 -544 0
v -768 -544 0
v -800 -544 0
v 0 -576 0
v -32 -576 0
v -64 -576 0
v -96 -576 0
v -128 -576 0
v -160 -576 0
v -192 -576 0
v -224 -576 0
v -256 -576 0
v -288 -576 0
v -320 -576 0
v -352 -576 0
v -384 -576 0
v -416 -576 0
v -448 -576 0
v -480 -576 0
v -512 -576 0
v -544 -576 0
v -576 -576 0
v -608 -576 0
v -640 -576 0
v -672 -576 0
v -704 -576 0
v -736 -576 0
v -768 -576 0
v -800 -576 0
v 0 -608 0
v -32 -608 0
v -64 -608 0
v -96 -608 0
v -128 -608 0
v -160 -608 0
v -192 -608 0
v -224 -608 0
v -256 -608 0
v -288 -608 0
v -320 -608 0
v -352 -608 0
v -384 -608 0
v -416 -608 0
v -448 -608 0
v -480 -608 0
v -512 -608 0
v -544 -608 0
v -576 -608 0
v -608 -608 0
v -640 -608 0
v -672 -608 0
v -704 -608 0
v -736 -608 0
v -768 -608 0
v -800 -608 0
v 0 -640 0
v -32 -640 0
v -64 -640 0
v -96 -640 0
v -128 -640 0
v -160 -640 0
v -192 -640 0
v -224 -640 0
v -256 -640 0
v -288 -640 0
v -320 -640 0
v -352 -640 0
v -384 -640 0
v -416 -640 0
v -448 -640 0
v -480 -640 0
v -512 -640 0
v -544 -640 0
v -576 -640 0
v -608 -640 0
v -640 -640 0
v -672 -640 0
v -704 -640 0
v -736 -640 0
v -768 -640 0
v -800 -640 0
v 0 -672 0
v -32 -672 0
v -64 -672 0
v -96 -672 0
v -128 -672 0
v -160 -672 0
v -192 -672 0
v -224 -672 0
v -256 -672 0
v -288 -672 0
v -320 -672 0
v -352 -672 0
v -384 -672 0
v -416 -672 0
v -448 -672 0
v -480 -672 0
v -512 -672 0
v -544 -672 0
v -576 -672 0
v -608 -672 0
v -640 -672 0
v -672 -672 0
v -704 -672 0
v -736 -672 0
v -768 -672 0
v -800 -672 0
v 0 -704 0
v -32 -704 0
v -64 -704 0
v -96 -704 0
v -128 -704 0
v -160 -704 0
v -192 -704 0
v -224 -704 0
v -256 -704 0
v -288 -704 0
v -320 -704 0
v -352 -704 0
v -384 -704 0
v -416 -704 0
v -448 -704 0
v -480 -704 0
v -512 -704 0
v -544 -704 0
v -576 -704 0
v -608 -704 0
v -640 -704 0
v -672 -704 0
v -704 -704 0
v -736 -704 0
v -768 -704 0
v -800 -704 0
v 0 -736 0
v -32 -736 0
v -64 -736 0
v -96 -736 0
v -128 -736 0
v -160 -736 0
v -192 -736 0
v -224 -736 0
v -256 -736 0
v -288 -736 0
v -320 -736 0
v -352 -736 0
v -384 -736 0
v -416 -736 0
v -448 -736 0
v -480 -736 0
v -512 -736 0
v -544 -736 0
v -576 -736 0
v -608 -736 0
v -640 -736 0
v -672 -736 0
v -704 -736 0
v -736 -736 0
v -768 -736 0
v -800 -736 0
v 0 -768 0
v -32 -768 0
v -64 -768 0
v -96 -768 0
v -128 -768 0
v -160 -768 0
v -192 -768 0
v -224 -768 0
v -256 -768 0
v -288 -768 0
v -320 -768 0
v -352 -768 0
v -384 -768 0
v -416 -768 0
v -448 -768 0
v -480 -768 0
v -512 -768 0
v -544 -768 0
v -576 -768 0
v -608 -768 0
v -640 -768 0
v -672 -768 0
v -704 -768 0
v -736 -768 0
v -768 -768 0
v -800 -768 0
v 0 -800 0
v -32 -800 0
v -64 -800 0
v -96 -800 0
v -128 -800 0
v -160 -800 0
v -192 -800 0
v -224 -800 0
v -256 -800 0
v -288 -800 0
v -320 -800 0
v -352 -800 0
v -384 -800 0
v -416 -800 0
v -448 -800 0
v -480 -800 0
v -512 -800 0
v -544 -800 0
v -576 -800 0
v -608 -800 0
v -640 -800 0
v -672 -800 0
v -704 -800 0
v -736 -800 0
v -768 -800 0
v -800 -800 0

# Texture cooridinates (Count = 592)
vt 0.04774112 0.5653394
vt 0.09511603 0.5653394
vt 0.09511603 0.6085736
vt 0.04774112 0.6085736
vt 0.0001220703 0.8696873
vt 0.04749698 0.8696873
vt 0.04749698 0.9129214
vt 0.0001220703 0.9129214
vt 0.04774112 0.8696873
vt 0.09511603 0.8696873
vt 0.09511603 0.9129214
vt 0.04774112 0.9129214
vt 0.09536017 0.9131656
vt 0.1427351 0.9131656
vt 0.1427351 0.9563997
vt 0.09536017 0.9563997
vt 0.04774112 0.826209
vt 0.09511603 0.826209
vt 0.09511603 0.8694432
vt 0.04774112 0.8694432
vt 0.0001220703 0.826209
vt 0.04749698 0.826209
vt 0.04749698 0.8694432
vt 0.0001220703 0.8694432
vt 0.04774112 0.9566438
vt 0.09511603 0.9566438
vt 0.09511603 0.9998779
vt 0.04774112 0.9998779
vt 0.04774112 0.7827308
vt 0.09511603 0.7827308
vt 0.09511603 0.8259649
vt 0.04774112 0.8259649
vt 0.09536017 0.7827308
vt 0.1427351 0.7827308
vt 0.1427351 0.8259649
vt 0.09536017 0.8259649
vt 0.09536017 0.8696873
vt 0.1427351 0.8696873
vt 0.1427351 0.9129214
vt 0.09536017 0.9129214
vt 0.09536017 0.826209
vt 0.1427351 0.826209
vt 0.1427351 0.8694432
vt 0.09536017 0.8694432
vt 0.04774112 0.9131656
vt 0.09511603 0.9131656
vt 0.09511603 0.9563997
vt 0.04774112 0.9563997
vt 0.0001220703 0.7827308
vt 0.04749698 0.7827308
vt 0.04749698 0.8259649
vt 0.0001220703 0.8259649
vt 0.09536017 0.9566438
vt 0.1427351 0.9566438
vt 0.1427351 0.9998779
vt 0.09536017 0.9998779
vt 0.6876221 0.1251221
vt 0.7498779 0.1251221
vt 0.7498779 0.1873779
vt 0.6876221 0.1873779
vt 0.8751221 0.3126221
vt 0.9373779 0.3126221
vt 0.9373779 0.3748779
vt 0.8751221 0.3748779
vt 0.6251221 0.2501221
vt 0.6873779 0.2501221
vt 0.6873779 0.3123779
vt 0.6251221 0.3123779
vt 0.3751221 0.3126221
vt 0.4373779 0.3126221
vt 0.4373779 0.3748779
vt 0.3751221 0.3748779
vt 0.4376221 0.3126221
vt 0.4998779 0.3126221
vt 0.4998779 0.3748779
vt 0.4376221 0.3748779
vt 0.5001221 0.3126221
vt 0.5623779 0.3126221
vt 0.5623779 0.3748779
vt 0.5001221 0.3748779
vt 0.9376221 0.3126221
vt 0.9998779 0.3126221
vt 0.9998779 0.3748779
vt 0.9376221 0.3748779
vt 0.5626221 0.3751221
vt 0.6248779 0.3751221
vt 0.6248779 0.4373779
vt 0.5626221 0.4373779
vt 0.6251221 0.3751221
vt 0.6873779 0.3751221
vt 0.6873779 0.4373779
vt 0.6251221 0.4373779
vt 0.6876221 0.3751221
vt 0.7498779 0.3751221
vt 0.7498779 0.4373779
vt 0.6876221 0.4373779
vt 0.5626221 0.3126221
vt 0.6248779 0.3126221
vt 0.6248779 0.3748779
vt 0.5626221 0.3748779
vt 0.6251221 0.3126221
vt 0.6873779 0.3126221
vt 0.6873779 0.3748779
vt 0.6251221 0.3748779
vt 0.6876221 0.3126221
vt 0.7498779 0.3126221
vt 0.7498779 0.3748779
vt 0.6876221 0.3748779
vt 0.3751221 0.4376221
vt 0.4373779 0.4376221
vt 0.4373779 0.4998779
vt 0.3751221 0.4998779
vt 0.4376221 0.4376221
vt 0.4998779 0.4376221
vt 0.4998779 0.4998779
vt 0.4376221 0.4998779
vt 0.5001221 0.4376221
vt 0.5623779 0.4376221
vt 0.5623779 0.4998779
vt 0.5001221 0.4998779
vt 0.3751221 0.3751221
vt 0.4373779 0.3751221
vt 0.4373779 0.4373779
vt 0.3751221 0.4373779
vt 0.4376221 0.3751221
vt 0.4998779 0.3751221
vt 0.4998779 0.4373779
vt 0.4376221 0.4373779
vt 0.5001221 0.3751221
vt 0.5623779 0.3751221
vt 0.5623779 0.4373779
vt 0.5001221 0.4373779
vt 0.5626221 0.5626221
vt 0.6248779 0.5626221
vt 0.6248779 0.6248779
vt 0.5626221 0.6248779
vt 0.6251221 0.5626221
vt 0.6873779 0.5626221
vt 0.6873779 0.6248779
vt 0.6251221 0.6248779
vt 0.6876221 0.5626221
vt 0.7498779 0.5626221
vt 0.7498779 0.6248779
vt 0.6876221 0.6248779
vt 0.5626221 0.6251221
vt 0.6248779 0.6251221
vt 0.6248779 0.6873779
vt 0.5626221 0.6873779
vt 0.6876221 0.6251221
vt 0.7498779 0.6251221
vt 0.7498779 0.6873779
vt 0.6876221 0.6873779
vt 0.5001221 0.0001220703
vt 0.5623779 0.0001220703
vt 0.5623779 0.06237793
vt 0.5001221 0.06237793
vt 0.6876221 0.8572649
vt 0.7498779 0.8572649
vt 0.7498779 0.9284493
vt 0.6876221 0.9284493
vt 0.6876221 0.7858363
vt 0.7498779 0.7858363
vt 0.7498779 0.8570208
vt 0.6876221 0.8570208
vt 0.5001221 0.7501221
vt 0.5415446 0.7501221
vt 0.5415446 0.8123779
vt 0.5001221 0.8123779
vt 0.5001221 0.6876221
vt 0.5415446 0.6876221
vt 0.5415446 0.7498779
vt 0.5001221 0.7498779
vt 0.6876221 0.9376221
vt 0.7498779 0.9376221
vt 0.7498779 0.9998779
vt 0.6876221 0.9998779
vt 0.6251221 0.8751221
vt 0.6873779 0.8751221
vt 0.6873779 0.9373779
vt 0.6251221 0.9373779
vt 0.6876221 0.8751221
vt 0.7498779 0.8751221
vt 0.7498779 0.9373779
vt 0.6876221 0.9373779
vt 0.7501221 0.8751221
vt 0.8123779 0.8751221
vt 0.8123779 0.9373779
vt 0.7501221 0.9373779
vt 0.2501221 0.6876221
vt 0.3123779 0.6876221
vt 0.3123779 0.7498779
vt 0.2501221 0.7498779
vt 0.06262207 0.7501221
vt 0.1248779 0.7501221
vt 0.1248779 0.8123779
vt 0.06262207 0.8123779
vt 0.2501221 0.9376221
vt 0.3123779 0.9376221
vt 0.3123779 0.9998779
vt 0.2501221 0.9998779
vt 0.3126221 0.8751221
vt 0.3748779 0.8751221
vt 0.3748779 0.9373779
vt 0.3126221 0.9373779
vt 0.2501221 0.6251221
vt 0.3123779 0.6251221
vt 0.3123779 0.6873779
vt 0.2501221 0.6873779
vt 0.1876221 0.8751221
vt 0.2498779 0.8751221
vt 0.2498779 0.9373779
vt 0.1876221 0.9373779
vt 0.4376221 0.7501221
vt 0.4998779 0.7501221
vt 0.4998779 0.8123779
vt 0.4376221 0.8123779
vt 0.5626221 0.8126221
vt 0.6248779 0.8126221
vt 0.6248779 0.8748779
vt 0.5626221 0.8748779
vt 0.2501221 0.8751221
vt 0.3123779 0.8751221
vt 0.3123779 0.9373779
vt 0.2501221 0.9373779
vt 0.8126221 0.8126221
vt 0.8748779 0.8126221
vt 0.8748779 0.8748779
vt 0.8126221 0.8748779
vt 0.1251221 0.8751221
vt 0.1873779 0.8751221
vt 0.1873779 0.9373779
vt 0.1251221 0.9373779
vt 0.1876221 0.8126221
vt 0.2498779 0.8126221
vt 0.2498779 0.8748779
vt 0.1876221 0.8748779
vt 0.2501221 0.8126221
vt 0.3123779 0.8126221
vt 0.3123779 0.8748779
vt 0.2501221 0.8748779
vt 0.3126221 0.8126221
vt 0.3748779 0.8126221
vt 0.3748779 0.8748779
vt 0.3126221 0.8748779
vt 0.3751221 0.8751221
vt 0.4373779 0.8751221
vt 0.4373779 0.9373779
vt 0.3751221 0.9373779
vt 0.1251221 0.8126221
vt 0.1873779 0.8126221
vt 0.1873779 0.8748779
vt 0.1251221 0.8748779
vt 0.1876221 0.6876221
vt 0.2498779 0.6876221
vt 0.2498779 0.7498779
vt 0.1876221 0.7498779
vt 0.3126221 0.6876221
vt 0.3748779 0.6876221
vt 0.3748779 0.7498779
vt 0.3126221 0.7498779
vt 0.3751221 0.8126221
vt 0.4373779 0.8126221
vt 0.4373779 0.8748779
vt 0.3751221 0.8748779
vt 0.1251221 0.7501221
vt 0.1873779 0.7501221
vt 0.1873779 0.8123779
vt 0.1251221 0.8123779
vt 0.1876221 0.7501221
vt 0.2498779 0.7501221
vt 0.2498779 0.8123779
vt 0.1876221 0.8123779
vt 0.3126221 0.7501221
vt 0.3748779 0.7501221
vt 0.3748779 0.8123779
vt 0.3126221 0.8123779
vt 0.3751221 0.7501221
vt 0.4373779 0.7501221
vt 0.4373779 0.8123779
vt 0.3751221 0.8123779
vt 0.2501221 0.7501221
vt 0.3123779 0.7501221
vt 0.3123779 0.8123779
vt 0.2501221 0.8123779
vt 0.8462759 0.6155066
vt 0.9229549 0.6155066
vt 0.9229549 0.6921856
vt 0.8462759 0.6921856
vt 0.923199 0.6155066
vt 0.9998779 0.6155066
vt 0.9998779 0.6921856
vt 0.923199 0.6921856
vt 0.8462759 0.5385836
vt 0.9229549 0.5385836
vt 0.9229549 0.6152625
vt 0.8462759 0.6152625
vt 0.923199 0.5385836
vt 0.9998779 0.5385836
vt 0.9998779 0.6152625
vt 0.923199 0.6152625
vt 0.6924298 0.3078144
vt 0.7691087 0.3078144
vt 0.7691087 0.3844933
vt 0.6924298 0.3844933
vt 0.7693529 0.3078144
vt 0.8460318 0.3078144
vt 0.8460318 0.3844933
vt 0.7693529 0.3844933
vt 0.2308913 0.3078144
vt 0.3075702 0.3078144
vt 0.3075702 0.3844933
vt 0.2308913 0.3844933
vt 0.3078144 0.3078144
vt 0.3844933 0.3078144
vt 0.3844933 0.3844933
vt 0.3078144 0.3844933
vt 0.3847375 0.3078144
vt 0.4614164 0.3078144
vt 0.4614164 0.3844933
vt 0.3847375 0.3844933
vt 0.3078144 0.0001220703
vt 0.3844933 0.0001220703
vt 0.3844933 0.076801
vt 0.3078144 0.076801
vt 0.3847375 0.0001220703
vt 0.4614164 0.0001220703
vt 0.4614164 0.076801
vt 0.3847375 0.076801
vt 0.4616605 0.0001220703
vt 0.5383395 0.0001220703
vt 0.5383395 0.076801
vt 0.4616605 0.076801
vt 0.0001220703 0.6155066
vt 0.07680101 0.6155066
vt 0.07680101 0.6921856
vt 0.0001220703 0.6921856
vt 0.07704515 0.6155066
vt 0.1537241 0.6155066
vt 0.1537241 0.6921856
vt 0.07704515 0.6921856
vt 0.8462759 0.7693529
vt 0.9229549 0.7693529
vt 0.9229549 0.8460318
vt 0.8462759 0.8460318
vt 0.923199 0.7693529
vt 0.9998779 0.7693529
vt 0.9998779 0.8460318
vt 0.923199 0.8460318
vt 0.8462759 0.6924298
vt 0.9229549 0.6924298
vt 0.9229549 0.7691087
vt 0.8462759 0.7691087
vt 0.923199 0.6924298
vt 0.9998779 0.6924298
vt 0.9998779 0.7691087
vt 0.923199 0.7691087
vt 0.4616605 0.3078144
vt 0.5383395 0.3078144
vt 0.5383395 0.3844933
vt 0.4616605 0.3844933
vt 0.5385836 0.3078144
vt 0.6152626 0.3078144
vt 0.6152626 0.3844933
vt 0.5385836 0.3844933
vt 0.6155067 0.3078144
vt 0.6921856 0.3078144
vt 0.6921856 0.3844933
vt 0.6155067 0.3844933
vt 0.6924298 0.4616605
vt 0.7691087 0.4616605
vt 0.7691087 0.5383395
vt 0.6924298 0.5383395
vt 0.7693529 0.4616605
vt 0.8460318 0.4616605
vt 0.8460318 0.5383395
vt 0.7693529 0.5383395
vt 0.2308913 0.6155066
vt 0.3075702 0.6155066
vt 0.3075702 0.6921856
vt 0.2308913 0.6921856
vt 0.3078144 0.6155066
vt 0.3844933 0.6155066
vt 0.3844933 0.6921856
vt 0.3078144 0.6921856
vt 0.3847375 0.6155066
vt 0.4614164 0.6155066
vt 0.4614164 0.6921856
vt 0.3847375 0.6921856
vt 0.2308913 0.5385836
vt 0.3075702 0.5385836
vt 0.3075702 0.6152625
vt 0.2308913 0.6152625
vt 0.3078144 0.5385836
vt 0.3844933 0.5385836
vt 0.3844933 0.6152625
vt 0.3078144 0.6152625
vt 0.3847375 0.5385836
vt 0.4614164 0.5385836
vt 0.4614164 0.6152625
vt 0.3847375 0.6152625
vt 0.6924298 0.3847374
vt 0.7691087 0.3847374
vt 0.7691087 0.4614164
vt 0.6924298 0.4614164
vt 0.7693529 0.3847374
vt 0.8460318 0.3847374
vt 0.8460318 0.4614164
vt 0.7693529 0.4614164
vt 0.2308913 0.4616605
vt 0.3075702 0.4616605
vt 0.3075702 0.5383395
vt 0.2308913 0.5383395
vt 0.3078144 0.4616605
vt 0.3844933 0.4616605
vt 0.3844933 0.5383395
vt 0.3078144 0.5383395
vt 0.3847375 0.4616605
vt 0.4614164 0.4616605
vt 0.4614164 0.5383395
vt 0.3847375 0.5383395
vt 0.3078144 0.2308913
vt 0.3844933 0.2308913
vt 0.3844933 0.3075702
vt 0.3078144 0.3075702
vt 0.3847375 0.2308913
vt 0.4614164 0.2308913
vt 0.4614164 0.3075702
vt 0.3847375 0.3075702
vt 0.4616605 0.2308913
vt 0.5383395 0.2308913
vt 0.5383395 0.3075702
vt 0.4616605 0.3075702
vt 0.3078144 0.1539682
vt 0.3844933 0.1539682
vt 0.3844933 0.2306471
vt 0.3078144 0.2306471
vt 0.3847375 0.1539682
vt 0.4614164 0.1539682
vt 0.4614164 0.2306471
vt 0.3847375 0.2306471
vt 0.4616605 0.1539682
vt 0.5383395 0.1539682
vt 0.5383395 0.2306471
vt 0.4616605 0.2306471
vt 0.0001220703 0.923199
vt 0.07680101 0.923199
vt 0.07680101 0.9998779
vt 0.0001220703 0.9998779
vt 0.07704515 0.923199
vt 0.1537241 0.923199
vt 0.1537241 0.9998779
vt 0.07704515 0.9998779
vt 0.3078144 0.07704514
vt 0.3844933 0.07704514
vt 0.3844933 0.1537241
vt 0.3078144 0.1537241
vt 0.3847375 0.07704514
vt 0.4614164 0.07704514
vt 0.4614164 0.1537241
vt 0.3847375 0.1537241
vt 0.4616605 0.07704514
vt 0.5383395 0.07704514
vt 0.5383395 0.1537241
vt 0.4616605 0.1537241
vt 0.0001220703 0.8462759
vt 0.07680101 0.8462759
vt 0.07680101 0.9229549
vt 0.0001220703 0.9229549
vt 0.07704515 0.8462759
vt 0.1537241 0.8462759
vt 0.1537241 0.9229549
vt 0.07704515 0.9229549
vt 0.0001220703 0.7693529
vt 0.07680101 0.7693529
vt 0.07680101 0.8460318
vt 0.0001220703 0.8460318
vt 0.07704515 0.7693529
vt 0.1537241 0.7693529
vt 0.1537241 0.8460318
vt 0.07704515 0.8460318
vt 0.0001220703 0.6924298
vt 0.07680101 0.6924298
vt 0.07680101 0.7691087
vt 0.0001220703 0.7691087
vt 0.07704515 0.6924298
vt 0.1537241 0.6924298
vt 0.1537241 0.7691087
vt 0.07704515 0.7691087
vt 0.4616605 0.6155066
vt 0.5383395 0.6155066
vt 0.5383395 0.6921856
vt 0.4616605 0.6921856
vt 0.5385836 0.6155066
vt 0.6152626 0.6155066
vt 0.6152626 0.6921856
vt 0.5385836 0.6921856
vt 0.6155067 0.6155066
vt 0.6921856 0.6155066
vt 0.6921856 0.6921856
vt 0.6155067 0.6921856
vt 0.4616605 0.5385836
vt 0.5383395 0.5385836
vt 0.5383395 0.6152625
vt 0.4616605 0.6152625
vt 0.5385836 0.5385836
vt 0.6152626 0.5385836
vt 0.6152626 0.6152625
vt 0.5385836 0.6152625
vt 0.6155067 0.5385836
vt 0.6921856 0.5385836
vt 0.6921856 0.6152625
vt 0.6155067 0.6152625
vt 0.4616605 0.4616605
vt 0.5383395 0.4616605
vt 0.5383395 0.5383395
vt 0.4616605 0.5383395
vt 0.5385836 0.4616605
vt 0.6152626 0.4616605
vt 0.6152626 0.5383395
vt 0.5385836 0.5383395
vt 0.6155067 0.4616605
vt 0.6921856 0.4616605
vt 0.6921856 0.5383395
vt 0.6155067 0.5383395
vt 0.3748779 0.9376221
vt 0.3748779 0.9998779
vt 0.1251221 0.9376221
vt 0.2498779 0.9376221
vt 0.2498779 0.9998779
vt 0.1251221 0.9998779
vt 0.0001220703 0.9376221
vt 0.1248779 0.9376221
vt 0.1248779 0.9998779
vt 0.7144078 0.1305569
vt 0.7617827 0.1305569
vt 0.7617827 0.173791
vt 0.7144078 0.173791
vt 0.904884 0.1305569
vt 0.9522589 0.1305569
vt 0.9522589 0.173791
vt 0.904884 0.173791
vt 0.8572649 0.1740351
vt 0.9046398 0.1740351
vt 0.9046398 0.2172692
vt 0.8572649 0.2172692
vt 0.952503 0.1305569
vt 0.9998779 0.1305569
vt 0.9998779 0.173791
vt 0.952503 0.173791
vt 0.7144078 0.04360032
vt 0.7617827 0.04360032
vt 0.7617827 0.08683443
vt 0.7144078 0.08683443
vt 0.952503 0.1740351
vt 0.9998779 0.1740351
vt 0.9998779 0.2172692
vt 0.952503 0.2172692
vt 0.904884 0.1740351
vt 0.9522589 0.1740351
vt 0.9522589 0.2172692
vt 0.904884 0.2172692
vt 0.7144078 0.1740351
vt 0.7617827 0.1740351
vt 0.7617827 0.2172692
vt 0.7144078 0.2172692
vt 0.8572649 0.1305569
vt 0.9046398 0.1305569
vt 0.9046398 0.173791
vt 0.8572649 0.173791
vt 0.7144078 0.08707857
vt 0.7617827 0.08707857
vt 0.7617827 0.1303127
vt 0.7144078 0.1303127
vt 0.7144078 0.4783829
vt 0.7617827 0.4783829
vt 0.7617827 0.5216171
vt 0.7144078 0.5216171
vt 0.04774112 0.4783829
vt 0.09511603 0.4783829
vt 0.09511603 0.5216171
vt 0.04774112 0.5216171
vt 0.0001220703 0.4783829
vt 0.04749698 0.4783829
vt 0.04749698 0.5216171
vt 0.0001220703 0.5216171
vt 0.3126221 0.9376221
vt 0.3126221 0.9998779
vt 0.1873779 0.9376221
vt 0.1873779 0.9998779
vt 0.06262207 0.9376221
vt 0.06262207 0.9998779
vt 0.0001220703 0.7501221

# Normal
vn 0 0 -1

# Groups (Count = 10)

g mesh_0001
f 1/1/1 2/2/1 3/3/1 4/4/1
f 2/1/1 5/2/1 6/3/1 3/4/1
f 5/1/1 7/2/1 8/3/1 6/4/1
f 7/1/1 9/2/1 10/3/1 8/4/1
f 9/1/1 11/2/1 12/3/1 10/4/1
f 11/1/1 13/2/1 14/3/1 12/4/1
f 13/1/1 15/2/1 16/3/1 14/4/1
f 15/1/1 17/2/1 18/3/1 16/4/1
f 17/1/1 19/2/1 20/3/1 18/4/1
f 19/1/1 21/2/1 22/3/1 20/4/1
f 21/1/1 23/2/1 24/3/1 22/4/1
f 23/1/1 25/2/1 26/3/1 24/4/1
f 25/1/1 27/2/1 28/3/1 26/4/1
f 27/1/1 29/2/1 30/3/1 28/4/1
f 29/1/1 31/2/1 32/3/1 30/4/1
f 31/1/1 33/2/1 34/3/1 32/4/1
f 33/1/1 35/2/1 36/3/1 34/4/1
f 35/1/1 37/2/1 38/3/1 36/4/1
f 37/1/1 39/2/1 40/3/1 38/4/1
f 39/1/1 41/2/1 42/3/1 40/4/1
f 41/1/1 43/2/1 44/3/1 42/4/1
f 43/1/1 45/2/1 46/3/1 44/4/1
f 45/1/1 47/2/1 48/3/1 46/4/1
f 47/1/1 49/2/1 50/3/1 48/4/1
f 49/1/1 51/2/1 52/3/1 50/4/1
f 53/1/1 54/2/1 2/3/1 1/4/1
f 54/1/1 55/2/1 5/3/1 2/4/1
f 55/1/1 56/2/1 7/3/1 5/4/1
f 56/1/1 57/2/1 9/3/1 7/4/1
f 57/1/1 58/2/1 11/3/1 9/4/1
f 58/1/1 59/2/1 13/3/1 11/4/1
f 59/1/1 60/2/1 15/3/1 13/4/1
f 60/1/1 61/2/1 17/3/1 15/4/1
f 61/1/1 62/2/1 19/3/1 17/4/1
f 62/1/1 63/2/1 21/3/1 19/4/1
f 63/1/1 64/2/1 23/3/1 21/4/1
f 64/1/1 65/2/1 25/3/1 23/4/1
f 65/1/1 66/2/1 27/3/1 25/4/1
f 66/1/1 67/2/1 29/3/1 27/4/1
f 67/1/1 68/2/1 31/3/1 29/4/1
f 68/1/1 69/2/1 33/3/1 31/4/1
f 69/1/1 70/2/1 35/3/1 33/4/1
f 70/1/1 71/2/1 37/3/1 35/4/1
f 71/1/1 72/2/1 39/3/1 37/4/1
f 72/1/1 73/2/1 41/3/1 39/4/1
f 73/1/1 74/2/1 43/3/1 41/4/1
f 74/1/1 75/2/1 45/3/1 43/4/1
f 75/1/1 76/2/1 47/3/1 45/4/1
f 76/1/1 77/2/1 49/3/1 47/4/1
f 77/1/1 78/2/1 51/3/1 49/4/1
f 79/1/1 80/2/1 54/3/1 53/4/1
f 80/1/1 81/2/1 55/3/1 54/4/1
f 81/1/1 82/2/1 56/3/1 55/4/1
f 82/1/1 83/2/1 57/3/1 56/4/1
f 83/1/1 84/2/1 58/3/1 57/4/1
f 84/1/1 85/2/1 59/3/1 58/4/1
f 85/1/1 86/2/1 60/3/1 59/4/1
f 86/1/1 87/2/1 61/3/1 60/4/1
f 87/1/1 88/2/1 62/3/1 61/4/1
f 88/1/1 89/2/1 63/3/1 62/4/1
f 89/1/1 90/2/1 64/3/1 63/4/1
f 90/1/1 91/2/1 65/3/1 64/4/1
f 91/1/1 92/2/1 66/3/1 65/4/1
f 92/1/1 93/2/1 67/3/1 66/4/1
f 93/1/1 94/2/1 68/3/1 67/4/1
f 94/1/1 95/2/1 69/3/1 68/4/1
f 95/1/1 96/2/1 70/3/1 69/4/1
f 96/1/1 97/2/1 71/3/1 70/4/1
f 97/1/1 98/2/1 72/3/1 71/4/1
f 98/1/1 99/2/1 73/3/1 72/4/1
f 99/1/1 100/2/1 74/3/1 73/4/1
f 100/1/1 101/2/1 75/3/1 74/4/1
f 101/1/1 102/2/1 76/3/1 75/4/1
f 102/1/1 103/2/1 77/3/1 76/4/1
f 103/1/1 104/2/1 78/3/1 77/4/1
f 105/1/1 106/2/1 80/3/1 79/4/1
f 106/1/1 107/2/1 81/3/1 80/4/1
f 107/1/1 108/2/1 82/3/1 81/4/1
f 108/1/1 109/2/1 83/3/1 82/4/1
f 109/1/1 110/2/1 84/3/1 83/4/1
f 110/1/1 111/2/1 85/3/1 84/4/1
f 111/1/1 112/2/1 86/3/1 85/4/1
f 112/1/1 113/2/1 87/3/1 86/4/1
f 113/1/1 114/2/1 88/3/1 87/4/1
f 114/1/1 115/2/1 89/3/1 88/4/1
f 115/1/1 116/2/1 90/3/1 89/4/1
f 116/1/1 117/2/1 91/3/1 90/4/1
f 117/1/1 118/2/1 92/3/1 91/4/1
f 118/1/1 119/2/1 93/3/1 92/4/1
f 119/1/1 120/2/1 94/3/1 93/4/1
f 120/1/1 121/2/1 95/3/1 94/4/1
f 121/1/1 122/2/1 96/3/1 95/4/1
f 122/1/1 123/2/1 97/3/1 96/4/1
f 123/1/1 124/2/1 98/3/1 97/4/1
f 124/1/1 125/2/1 99/3/1 98/4/1
f 125/1/1 126/2/1 100/3/1 99/4/1
f 126/1/1 127/2/1 101/3/1 100/4/1
f 127/1/1 128/2/1 102/3/1 101/4/1
f 128/1/1 129/2/1 103/3/1 102/4/1
f 129/1/1 130/2/1 104/3/1 103/4/1
f 131/1/1 132/2/1 106/3/1 105/4/1
f 132/1/1 133/2/1 107/3/1 106/4/1
f 133/1/1 134/2/1 108/3/1 107/4/1
f 134/1/1 135/2/1 109/3/1 108/4/1
f 135/1/1 136/2/1 110/3/1 109/4/1
f 136/1/1 137/2/1 111/3/1 110/4/1
f 137/1/1 138/2/1 112/3/1 111/4/1
f 138/1/1 139/2/1 113/3/1 112/4/1
f 139/1/1 140/2/1 114/3/1 113/4/1
f 140/1/1 141/2/1 115/3/1 114/4/1
f 141/1/1 142/2/1 116/3/1 115/4/1
f 142/1/1 143/2/1 117/3/1 116/4/1
f 143/1/1 144/2/1 118/3/1 117/4/1
f 144/1/1 145/2/1 119/3/1 118/4/1
f 145/1/1 146/2/1 120/3/1 119/4/1
f 146/1/1 147/2/1 121/3/1 120/4/1
f 147/1/1 148/2/1 122/3/1 121/4/1
f 148/1/1 149/2/1 123/3/1 122/4/1
f 149/1/1 150/2/1 124/3/1 123/4/1
f 150/1/1 151/2/1 125/3/1 124/4/1
f 151/1/1 152/2/1 126/3/1 125/4/1
f 152/1/1 153/2/1 127/3/1 126/4/1
f 153/1/1 154/2/1 128/3/1 127/4/1
f 154/1/1 155/2/1 129/3/1 128/4/1
f 155/1/1 156/2/1 130/3/1 129/4/1
f 157/1/1 158/2/1 132/3/1 131/4/1
f 158/1/1 159/2/1 133/3/1 132/4/1
f 159/1/1 160/2/1 134/3/1 133/4/1
f 160/1/1 161/2/1 135/3/1 134/4/1
f 161/1/1 162/2/1 136/3/1 135/4/1
f 162/1/1 163/2/1 137/3/1 136/4/1
f 163/1/1 164/2/1 138/3/1 137/4/1
f 164/1/1 165/2/1 139/3/1 138/4/1
f 165/1/1 166/2/1 140/3/1 139/4/1
f 166/1/1 167/2/1 141/3/1 140/4/1
f 167/1/1 168/2/1 142/3/1 141/4/1
f 168/1/1 169/2/1 143/3/1 142/4/1
f 169/1/1 170/2/1 144/3/1 143/4/1
f 170/1/1 171/2/1 145/3/1 144/4/1
f 171/1/1 172/2/1 146/3/1 145/4/1
f 172/1/1 173/2/1 147/3/1 146/4/1
f 173/1/1 174/2/1 148/3/1 147/4/1
f 174/1/1 175/2/1 149/3/1 148/4/1
f 175/1/1 176/2/1 150/3/1 149/4/1
f 176/1/1 177/2/1 151/3/1 150/4/1
f 177/1/1 178/2/1 152/3/1 151/4/1
f 178/1/1 179/2/1 153/3/1 152/4/1
f 179/1/1 180/2/1 154/3/1 153/4/1
f 180/1/1 181/2/1 155/3/1 154/4/1
f 181/1/1 182/2/1 156/3/1 155/4/1
f 183/1/1 184/2/1 158/3/1 157/4/1
f 184/1/1 185/2/1 159/3/1 158/4/1
f 185/1/1 186/2/1 160/3/1 159/4/1
f 186/1/1 187/2/1 161/3/1 160/4/1
f 187/1/1 188/2/1 162/3/1 161/4/1
f 188/1/1 189/2/1 163/3/1 162/4/1
f 189/1/1 190/2/1 164/3/1 163/4/1
f 190/1/1 191/2/1 165/3/1 164/4/1
f 191/1/1 192/2/1 166/3/1 165/4/1
f 192/1/1 193/2/1 167/3/1 166/4/1
f 193/1/1 194/2/1 168/3/1 167/4/1
f 194/1/1 195/2/1 169/3/1 168/4/1
f 195/1/1 196/2/1 170/3/1 169/4/1
f 196/1/1 197/2/1 171/3/1 170/4/1
f 197/1/1 198/2/1 172/3/1 171/4/1
f 198/1/1 199/2/1 173/3/1 172/4/1
f 199/1/1 200/2/1 174/3/1 173/4/1
f 200/1/1 201/2/1 175/3/1 174/4/1
f 201/1/1 202/2/1 176/3/1 175/4/1
f 202/1/1 203/2/1 177/3/1 176/4/1
f 203/1/1 204/2/1 178/3/1 177/4/1
f 204/1/1 205/2/1 179/3/1 178/4/1
f 205/1/1 206/2/1 180/3/1 179/4/1
f 206/1/1 207/2/1 181/3/1 180/4/1
f 207/1/1 208/2/1 182/3/1 181/4/1
f 209/1/1 210/2/1 184/3/1 183/4/1
f 210/1/1 211/2/1 185/3/1 184/4/1
f 211/1/1 212/2/1 186/3/1 185/4/1
f 212/1/1 213/2/1 187/3/1 186/4/1
f 213/1/1 214/2/1 188/3/1 187/4/1
f 214/1/1 215/2/1 189/3/1 188/4/1
f 215/1/1 216/2/1 190/3/1 189/4/1
f 216/1/1 217/2/1 191/3/1 190/4/1
f 217/1/1 218/2/1 192/3/1 191/4/1
f 218/1/1 219/2/1 193/3/1 192/4/1
f 219/1/1 220/2/1 194/3/1 193/4/1
f 220/1/1 221/2/1 195/3/1 194/4/1
f 221/1/1 222/2/1 196/3/1 195/4/1
f 222/1/1 223/2/1 197/3/1 196/4/1
f 223/1/1 224/2/1 198/3/1 197/4/1
f 224/1/1 225/2/1 199/3/1 198/4/1
f 225/1/1 226/2/1 200/3/1 199/4/1
f 226/1/1 227/2/1 201/3/1 200/4/1
f 227/1/1 228/2/1 202/3/1 201/4/1
f 228/1/1 229/2/1 203/3/1 202/4/1
f 229/1/1 230/2/1 204/3/1 203/4/1
f 230/1/1 231/2/1 205/3/1 204/4/1
f 231/1/1 232/2/1 206/3/1 205/4/1
f 232/1/1 233/2/1 207/3/1 206/4/1
f 233/1/1 234/2/1 208/3/1 207/4/1
f 235/1/1 236/2/1 210/3/1 209/4/1
f 236/1/1 237/2/1 211/3/1 210/4/1
f 237/1/1 238/2/1 212/3/1 211/4/1
f 238/1/1 239/2/1 213/3/1 212/4/1
f 239/1/1 240/2/1 214/3/1 213/4/1
f 240/1/1 241/2/1 215/3/1 214/4/1
f 241/1/1 242/2/1 216/3/1 215/4/1
f 242/1/1 243/2/1 217/3/1 216/4/1
f 243/1/1 244/2/1 218/3/1 217/4/1
f 244/1/1 245/2/1 219/3/1 218/4/1
f 245/1/1 246/2/1 220/3/1 219/4/1
f 246/1/1 247/2/1 221/3/1 220/4/1
f 247/1/1 248/2/1 222/3/1 221/4/1
f 248/1/1 249/2/1 223/3/1 222/4/1
f 249/1/1 250/2/1 224/3/1 223/4/1
f 250/1/1 251/2/1 225/3/1 224/4/1
f 251/1/1 252/2/1 226/3/1 225/4/1
f 252/1/1 253/2/1 227/3/1 226/4/1
f 253/1/1 254/2/1 228/3/1 227/4/1
f 254/1/1 255/2/1 229/3/1 228/4/1
f 255/1/1 256/2/1 230/3/1 229/4/1
f 256/1/1 257/2/1 231/3/1 230/4/1
f 257/1/1 258/2/1 232/3/1 231/4/1
f 258/1/1 259/2/1 233/3/1 232/4/1
f 259/1/1 260/2/1 234/3/1 233/4/1
f 261/1/1 262/2/1 236/3/1 235/4/1
f 262/1/1 263/2/1 237/3/1 236/4/1
f 263/1/1 264/2/1 238/3/1 237/4/1
f 264/1/1 265/2/1 239/3/1 238/4/1
f 265/1/1 266/2/1 240/3/1 239/4/1
f 266/1/1 267/2/1 241/3/1 240/4/1
f 267/1/1 268/2/1 242/3/1 241/4/1
f 268/1/1 269/2/1 243/3/1 242/4/1
f 269/1/1 270/2/1 244/3/1 243/4/1
f 270/1/1 271/2/1 245/3/1 244/4/1
f 271/1/1 272/2/1 246/3/1 245/4/1
f 272/1/1 273/2/1 247/3/1 246/4/1
f 273/1/1 274/2/1 248/3/1 247/4/1
f 274/1/1 275/2/1 249/3/1 248/4/1
f 275/1/1 276/2/1 250/3/1 249/4/1
f 276/1/1 277/2/1 251/3/1 250/4/1
f 277/1/1 278/2/1 252/3/1 251/4/1
f 278/1/1 279/2/1 253/3/1 252/4/1
f 279/1/1 280/2/1 254/3/1 253/4/1
f 280/1/1 281/2/1 255/3/1 254/4/1
f 281/1/1 282/2/1 256/3/1 255/4/1
f 282/1/1 283/2/1 257/3/1 256/4/1
f 283/1/1 284/2/1 258/3/1 257/4/1
f 284/1/1 285/2/1 259/3/1 258/4/1
f 285/1/1 286/2/1 260/3/1 259/4/1
f 287/1/1 288/2/1 262/3/1 261/4/1
f 288/1/1 289/2/1 263/3/1 262/4/1
f 289/1/1 290/2/1 264/3/1 263/4/1
f 290/1/1 291/2/1 265/3/1 264/4/1
f 291/1/1 292/2/1 266/3/1 265/4/1
f 292/1/1 293/2/1 267/3/1 266/4/1
f 293/1/1 294/2/1 268/3/1 267/4/1
f 294/1/1 295/2/1 269/3/1 268/4/1
f 295/1/1 296/2/1 270/3/1 269/4/1
f 296/1/1 297/2/1 271/3/1 270/4/1
f 297/1/1 298/2/1 272/3/1 271/4/1
f 298/1/1 299/2/1 273/3/1 272/4/1
f 299/1/1 300/2/1 274/3/1 273/4/1
f 300/1/1 301/2/1 275/3/1 274/4/1
f 301/1/1 302/2/1 276/3/1 275/4/1
f 302/1/1 303/2/1 277/3/1 276/4/1
f 303/1/1 304/2/1 278/3/1 277/4/1
f 304/1/1 305/2/1 279/3/1 278/4/1
f 305/1/1 306/2/1 280/3/1 279/4/1
f 306/1/1 307/2/1 281/3/1 280/4/1
f 307/1/1 308/2/1 282/3/1 281/4/1
f 308/1/1 309/2/1 283/3/1 282/4/1
f 309/1/1 310/2/1 284/3/1 283/4/1
f 310/1/1 311/2/1 285/3/1 284/4/1
f 311/1/1 312/2/1 286/3/1 285/4/1
f 313/1/1 314/2/1 288/3/1 287/4/1
f 314/1/1 315/2/1 289/3/1 288/4/1
f 315/1/1 316/2/1 290/3/1 289/4/1
f 316/1/1 317/2/1 291/3/1 290/4/1
f 317/1/1 318/2/1 292/3/1 291/4/1
f 318/1/1 319/2/1 293/3/1 292/4/1
f 319/1/1 320/2/1 294/3/1 293/4/1
f 320/1/1 321/2/1 295/3/1 294/4/1
f 321/1/1 322/2/1 296/3/1 295/4/1
f 322/1/1 323/2/1 297/3/1 296/4/1
f 323/1/1 324/2/1 298/3/1 297/4/1
f 324/1/1 325/2/1 299/3/1 298/4/1
f 325/1/1 326/2/1 300/3/1 299/4/1
f 326/1/1 327/2/1 301/3/1 300/4/1
f 327/1/1 328/2/1 302/3/1 301/4/1
f 328/1/1 329/2/1 303/3/1 302/4/1
f 329/1/1 330/2/1 304/3/1 303/4/1
f 330/1/1 331/2/1 305/3/1 304/4/1
f 331/1/1 332/2/1 306/3/1 305/4/1
f 332/1/1 333/2/1 307/3/1 306/4/1
f 333/1/1 334/2/1 308/3/1 307/4/1
f 334/1/1 335/2/1 309/3/1 308/4/1
f 335/1/1 336/2/1 310/3/1 309/4/1
f 336/1/1 337/2/1 311/3/1 310/4/1
f 337/1/1 338/2/1 312/3/1 311/4/1
f 339/1/1 340/2/1 314/3/1 313/4/1
f 340/1/1 341/2/1 315/3/1 314/4/1
f 341/1/1 342/2/1 316/3/1 315/4/1
f 342/1/1 343/2/1 317/3/1 316/4/1
f 343/1/1 344/2/1 318/3/1 317/4/1
f 344/1/1 345/2/1 319/3/1 318/4/1
f 345/1/1 346/2/1 320/3/1 319/4/1
f 346/1/1 347/2/1 321/3/1 320/4/1
f 347/1/1 348/2/1 322/3/1 321/4/1
f 348/1/1 349/2/1 323/3/1 322/4/1
f 349/1/1 350/2/1 324/3/1 323/4/1
f 350/1/1 351/2/1 325/3/1 324/4/1
f 351/1/1 352/2/1 326/3/1 325/4/1
f 352/1/1 353/2/1 327/3/1 326/4/1
f 353/1/1 354/2/1 328/3/1 327/4/1
f 354/1/1 355/2/1 329/3/1 328/4/1
f 355/1/1 356/2/1 330/3/1 329/4/1
f 356/1/1 357/2/1 331/3/1 330/4/1
f 357/1/1 358/2/1 332/3/1 331/4/1
f 358/1/1 359/2/1 333/3/1 332/4/1
f 359/1/1 360/2/1 334/3/1 333/4/1
f 360/1/1 361/2/1 335/3/1 334/4/1
f 361/1/1 362/2/1 336/3/1 335/4/1
f 362/1/1 363/2/1 337/3/1 336/4/1
f 363/1/1 364/2/1 338/3/1 337/4/1
f 365/1/1 366/2/1 340/3/1 339/4/1
f 366/1/1 367/2/1 341/3/1 340/4/1
f 367/1/1 368/2/1 342/3/1 341/4/1
f 368/1/1 369/2/1 343/3/1 342/4/1
f 369/1/1 370/2/1 344/3/1 343/4/1
f 370/1/1 371/2/1 345/3/1 344/4/1
f 371/1/1 372/2/1 346/3/1 345/4/1
f 372/1/1 373/2/1 347/3/1 346/4/1
f 373/1/1 374/2/1 348/3/1 347/4/1
f 374/1/1 375/2/1 349/3/1 348/4/1
f 375/1/1 376/2/1 350/3/1 349/4/1
f 376/1/1 377/2/1 351/3/1 350/4/1
f 377/1/1 378/2/1 352/3/1 351/4/1
f 378/1/1 379/2/1 353/3/1 352/4/1
f 379/1/1 380/2/1 354/3/1 353/4/1
f 380/1/1 381/2/1 355/3/1 354/4/1
f 381/1/1 382/2/1 356/3/1 355/4/1
f 382/1/1 383/2/1 357/3/1 356/4/1
f 383/1/1 384/2/1 358/3/1 357/4/1
f 384/1/1 385/2/1 359/3/1 358/4/1
f 385/1/1 386/2/1 360/3/1 359/4/1
f 386/1/1 387/2/1 361/3/1 360/4/1
f 387/1/1 388/2/1 362/3/1 361/4/1
f 388/1/1 389/2/1 363/3/1 362/4/1
f 389/1/1 390/2/1 364/3/1 363/4/1
f 391/1/1 392/2/1 366/3/1 365/4/1
f 392/1/1 393/2/1 367/3/1 366/4/1
f 393/1/1 394/2/1 368/3/1 367/4/1
f 394/1/1 395/2/1 369/3/1 368/4/1
f 395/1/1 396/2/1 370/3/1 369/4/1
f 396/1/1 397/2/1 371/3/1 370/4/1
f 397/1/1 398/2/1 372/3/1 371/4/1
f 398/1/1 399/2/1 373/3/1 372/4/1
f 399/1/1 400/2/1 374/3/1 373/4/1
f 400/1/1 401/2/1 375/3/1 374/4/1
f 401/1/1 402/2/1 376/3/1 375/4/1
f 402/1/1 403/2/1 377/3/1 376/4/1
f 403/1/1 404/2/1 378/3/1 377/4/1
f 404/1/1 405/2/1 379/3/1 378/4/1
f 405/1/1 406/2/1 380/3/1 379/4/1
f 406/1/1 407/2/1 381/3/1 380/4/1
f 407/1/1 408/2/1 382/3/1 381/4/1
f 408/1/1 409/2/1 383/3/1 382/4/1
f 409/1/1 410/2/1 384/3/1 383/4/1
f 410/1/1 411/2/1 385/3/1 384/4/1
f 411/1/1 412/2/1 386/3/1 385/4/1
f 412/1/1 413/2/1 387/3/1 386/4/1
f 413/1/1 414/2/1 388/3/1 387/4/1
f 414/1/1 415/2/1 389/3/1 388/4/1
f 415/1/1 416/2/1 390/3/1 389/4/1
f 417/1/1 418/2/1 392/3/1 391/4/1
f 418/1/1 419/2/1 393/3/1 392/4/1
f 419/1/1 420/2/1 394/3/1 393/4/1
f 420/1/1 421/2/1 395/3/1 394/4/1
f 421/1/1 422/2/1 396/3/1 395/4/1
f 422/1/1 423/2/1 397/3/1 396/4/1
f 423/1/1 424/2/1 398/3/1 397/4/1
f 424/1/1 425/2/1 399/3/1 398/4/1
f 425/1/1 426/2/1 400/3/1 399/4/1
f 426/1/1 427/2/1 401/3/1 400/4/1
f 427/1/1 428/2/1 402/3/1 401/4/1
f 428/1/1 429/2/1 403/3/1 402/4/1
f 429/1/1 430/2/1 404/3/1 403/4/1
f 430/1/1 431/2/1 405/3/1 404/4/1
f 431/1/1 432/2/1 406/3/1 405/4/1
f 432/1/1 433/2/1 407/3/1 406/4/1
f 433/1/1 434/2/1 408/3/1 407/4/1
f 434/1/1 435/2/1 409/3/1 408/4/1
f 435/1/1 436/2/1 410/3/1 409/4/1
f 436/1/1 437/2/1 411/3/1 410/4/1
f 437/1/1 438/2/1 412/3/1 411/4/1
f 438/1/1 439/2/1 413/3/1 412/4/1
f 439/1/1 440/2/1 414/3/1 413/4/1
f 440/1/1 441/2/1 415/3/1 414/4/1
f 441/1/1 442/2/1 416/3/1 415/4/1
f 443/1/1 444/2/1 418/3/1 417/4/1
f 444/1/1 445/2/1 419/3/1 418/4/1
f 445/1/1 446/2/1 420/3/1 419/4/1
f 446/1/1 447/2/1 421/3/1 420/4/1
f 447/1/1 448/2/1 422/3/1 421/4/1
f 448/1/1 449/2/1 423/3/1 422/4/1
f 449/1/1 450/2/1 424/3/1 423/4/1
f 450/1/1 451/2/1 425/3/1 424/4/1
f 451/1/1 452/2/1 426/3/1 425/4/1
f 452/1/1 453/2/1 427/3/1 426/4/1
f 453/1/1 454/2/1 428/3/1 427/4/1
f 454/1/1 455/2/1 429/3/1 428/4/1
f 455/1/1 456/2/1 430/3/1 429/4/1
f 456/1/1 457/2/1 431/3/1 430/4/1
f 457/1/1 458/2/1 432/3/1 431/4/1
f 458/1/1 459/2/1 433/3/1 432/4/1
f 459/1/1 460/2/1 434/3/1 433/4/1
f 460/1/1 461/2/1 435/3/1 434/4/1
f 461/1/1 462/2/1 436/3/1 435/4/1
f 462/1/1 463/2/1 437/3/1 436/4/1
f 463/1/1 464/2/1 438/3/1 437/4/1
f 464/1/1 465/2/1 439/3/1 438/4/1
f 465/1/1 466/2/1 440/3/1 439/4/1
f 466/1/1 467/2/1 441/3/1 440/4/1
f 467/1/1 468/2/1 442/3/1 441/4/1
f 469/1/1 470/2/1 444/3/1 443/4/1
f 470/1/1 471/2/1 445/3/1 444/4/1
f 471/1/1 472/2/1 446/3/1 445/4/1
f 472/1/1 473/2/1 447/3/1 446/4/1
f 473/1/1 474/2/1 448/3/1 447/4/1
f 474/1/1 475/2/1 449/3/1 448/4/1
f 475/1/1 476/2/1 450/3/1 449/4/1
f 476/1/1 477/2/1 451/3/1 450/4/1
f 477/1/1 478/2/1 452/3/1 451/4/1
f 478/1/1 479/2/1 453/3/1 452/4/1
f 479/1/1 480/2/1 454/3/1 453/4/1
f 480/1/1 481/2/1 455/3/1 454/4/1
f 481/1/1 482/2/1 456/3/1 455/4/1
f 482/1/1 483/2/1 457/3/1 456/4/1
f 483/1/1 484/2/1 458/3/1 457/4/1
f 484/1/1 485/2/1 459/3/1 458/4/1
f 485/1/1 486/2/1 460/3/1 459/4/1
f 486/1/1 487/2/1 461/3/1 460/4/1
f 487/1/1 488/2/1 462/3/1 461/4/1
f 488/1/1 489/2/1 463/3/1 462/4/1
f 489/1/1 490/2/1 464/3/1 463/4/1
f 490/1/1 491/2/1 465/3/1 464/4/1
f 491/1/1 492/2/1 466/3/1 465/4/1
f 492/1/1 493/2/1 467/3/1 466/4/1
f 493/1/1 494/2/1 468/3/1 467/4/1
f 495/1/1 496/2/1 470/3/1 469/4/1
f 496/1/1 497/2/1 471/3/1 470/4/1
f 497/1/1 498/2/1 472/3/1 471/4/1
f 498/1/1 499/2/1 473/3/1 472/4/1
f 499/1/1 500/2/1 474/3/1 473/4/1
f 500/1/1 501/2/1 475/3/1 474/4/1
f 501/1/1 502/2/1 476/3/1 475/4/1
f 502/1/1 503/2/1 477/3/1 476/4/1
f 503/1/1 504/2/1 478/3/1 477/4/1
f 504/1/1 505/2/1 479/3/1 478/4/1
f 505/1/1 506/2/1 480/3/1 479/4/1
f 506/1/1 507/2/1 481/3/1 480/4/1
f 507/1/1 508/2/1 482/3/1 481/4/1
f 508/1/1 509/2/1 483/3/1 482/4/1
f 509/1/1 510/2/1 484/3/1 483/4/1
f 510/1/1 511/2/1 485/3/1 484/4/1
f 511/1/1 512/2/1 486/3/1 485/4/1
f 512/1/1 513/2/1 487/3/1 486/4/1
f 513/1/1 514/2/1 488/3/1 487/4/1
f 514/1/1 515/2/1 489/3/1 488/4/1
f 515/1/1 516/2/1 490/3/1 489/4/1
f 516/1/1 517/2/1 491/3/1 490/4/1
f 517/1/1 518/2/1 492/3/1 491/4/1
f 518/1/1 519/2/1 493/3/1 492/4/1
f 519/1/1 520/2/1 494/3/1 493/4/1
f 521/1/1 522/2/1 496/3/1 495/4/1
f 522/1/1 523/2/1 497/3/1 496/4/1
f 523/1/1 524/2/1 498/3/1 497/4/1
f 524/1/1 525/2/1 499/3/1 498/4/1
f 525/1/1 526/2/1 500/3/1 499/4/1
f 526/1/1 527/2/1 501/3/1 500/4/1
f 527/1/1 528/2/1 502/3/1 501/4/1
f 528/1/1 529/2/1 503/3/1 502/4/1
f 529/1/1 530/2/1 504/3/1 503/4/1
f 530/1/1 531/2/1 505/3/1 504/4/1
f 531/1/1 532/2/1 506/3/1 505/4/1
f 532/1/1 533/2/1 507/3/1 506/4/1
f 533/1/1 534/2/1 508/3/1 507/4/1
f 534/1/1 535/2/1 509/3/1 508/4/1
f 535/1/1 536/2/1 510/3/1 509/4/1
f 536/1/1 537/2/1 511/3/1 510/4/1
f 537/1/1 538/2/1 512/3/1 511/4/1
f 538/1/1 539/2/1 513/3/1 512/4/1
f 539/1/1 540/2/1 514/3/1 513/4/1
f 540/1/1 541/2/1 515/3/1 514/4/1
f 541/1/1 542/2/1 516/3/1 515/4/1
f 542/1/1 543/2/1 517/3/1 516/4/1
f 543/1/1 544/2/1 518/3/1 517/4/1
f 544/1/1 545/2/1 519/3/1 518/4/1
f 545/1/1 546/2/1 520/3/1 519/4/1
f 547/1/1 548/2/1 522/3/1 521/4/1
f 548/1/1 549/2/1 523/3/1 522/4/1
f 549/1/1 550/2/1 524/3/1 523/4/1
f 550/1/1 551/2/1 525/3/1 524/4/1
f 551/1/1 552/2/1 526/3/1 525/4/1
f 552/1/1 553/2/1 527/3/1 526/4/1
f 553/1/1 554/2/1 528/3/1 527/4/1
f 554/1/1 555/2/1 529/3/1 528/4/1
f 555/1/1 556/2/1 530/3/1 529/4/1
f 556/1/1 557/2/1 531/3/1 530/4/1
f 557/1/1 558/2/1 532/3/1 531/4/1
f 558/1/1 559/2/1 533/3/1 532/4/1
f 559/1/1 560/2/1 534/3/1 533/4/1
f 560/1/1 561/2/1 535/3/1 534/4/1
f 561/1/1 562/2/1 536/3/1 535/4/1
f 562/1/1 563/2/1 537/3/1 536/4/1
f 563/1/1 564/2/1 538/3/1 537/4/1
f 564/1/1 565/2/1 539/3/1 538/4/1
f 565/1/1 566/2/1 540/3/1 539/4/1
f 566/1/1 567/2/1 541/3/1 540/4/1
f 567/1/1 568/2/1 542/3/1 541/4/1
f 568/1/1 569/2/1 543/3/1 542/4/1
f 569/1/1 570/2/1 544/3/1 543/4/1
f 570/1/1 571/2/1 545/3/1 544/4/1
f 571/1/1 572/2/1 546/3/1 545/4/1
f 573/1/1 574/2/1 548/3/1 547/4/1
f 574/1/1 575/2/1 549/3/1 548/4/1
f 575/1/1 576/2/1 550/3/1 549/4/1
f 576/1/1 577/2/1 551/3/1 550/4/1
f 577/1/1 578/2/1 552/3/1 551/4/1
f 578/1/1 579/2/1 553/3/1 552/4/1
f 579/1/1 580/2/1 554/3/1 553/4/1
f 580/1/1 581/2/1 555/3/1 554/4/1
f 581/1/1 582/2/1 556/3/1 555/4/1
f 582/1/1 583/2/1 557/3/1 556/4/1
f 583/1/1 584/2/1 558/3/1 557/4/1
f 584/1/1 585/2/1 559/3/1 558/4/1
f 585/1/1 586/2/1 560/3/1 559/4/1
f 586/1/1 587/2/1 561/3/1 560/4/1
f 587/1/1 588/2/1 562/3/1 561/4/1
f 588/1/1 589/2/1 563/3/1 562/4/1
f 589/1/1 590/2/1 564/3/1 563/4/1
f 590/1/1 591/2/1 565/3/1 564/4/1
f 591/1/1 592/2/1 566/3/1 565/4/1
f 592/1/1 593/2/1 567/3/1 566/4/1
f 593/1/1 594/2/1 568/3/1 567/4/1
f 594/1/1 595/2/1 569/3/1 568/4/1
f 595/1/1 596/2/1 570/3/1 569/4/1
f 596/1/1 597/2/1 571/3/1 570/4/1
f 597/1/1 598/2/1 572/3/1 571/4/1
f 599/1/1 600/2/1 574/3/1 573/4/1
f 600/1/1 601/2/1 575/3/1 574/4/1
f 601/1/1 602/2/1 576/3/1 575/4/1
f 602/1/1 603/2/1 577/3/1 576/4/1
f 603/1/1 604/2/1 578/3/1 577/4/1
f 604/1/1 605/2/1 579/3/1 578/4/1
f 605/1/1 606/2/1 580/3/1 579/4/1
f 606/1/1 607/2/1 581/3/1 580/4/1
f 607/1/1 608/2/1 582/3/1 581/4/1
f 608/1/1 609/2/1 583/3/1 582/4/1
f 609/1/1 610/2/1 584/3/1 583/4/1
f 610/1/1 611/2/1 585/3/1 584/4/1
f 611/1/1 612/2/1 586/3/1 585/4/1
f 612/1/1 613/2/1 587/3/1 586/4/1
f 613/1/1 614/2/1 588/3/1 587/4/1
f 614/1/1 615/2/1 589/3/1 588/4/1
f 615/1/1 616/2/1 590/3/1 589/4/1
f 616/1/1 617/2/1 591/3/1 590/4/1
f 617/1/1 618/2/1 592/3/1 591/4/1
f 618/1/1 619/2/1 593/3/1 592/4/1
f 619/1/1 620/2/1 594/3/1 593/4/1
f 620/1/1 621/2/1 595/3/1 594/4/1
f 621/1/1 622/2/1 596/3/1 595/4/1
f 622/1/1 623/2/1 597/3/1 596/4/1
f 623/1/1 624/2/1 598/3/1 597/4/1
f 625/1/1 626/2/1 600/3/1 599/4/1
f 626/1/1 627/2/1 601/3/1 600/4/1
f 627/1/1 628/2/1 602/3/1 601/4/1
f 628/1/1 629/2/1 603/3/1 602/4/1
f 629/1/1 630/2/1 604/3/1 603/4/1
f 630/1/1 631/2/1 605/3/1 604/4/1
f 631/1/1 632/2/1 606/3/1 605/4/1
f 632/1/1 633/2/1 607/3/1 606/4/1
f 633/1/1 634/2/1 608/3/1 607/4/1
f 634/1/1 635/2/1 609/3/1 608/4/1
f 635/1/1 636/2/1 610/3/1 609/4/1
f 636/1/1 637/2/1 611/3/1 610/4/1
f 637/1/1 638/2/1 612/3/1 611/4/1
f 638/1/1 639/2/1 613/3/1 612/4/1
f 639/1/1 640/2/1 614/3/1 613/4/1
f 640/1/1 641/2/1 615/3/1 614/4/1
f 641/1/1 642/2/1 616/3/1 615/4/1
f 642/1/1 643/2/1 617/3/1 616/4/1
f 643/1/1 644/2/1 618/3/1 617/4/1
f 644/1/1 645/2/1 619/3/1 618/4/1
f 645/1/1 646/2/1 620/3/1 619/4/1
f 646/1/1 647/2/1 621/3/1 620/4/1
f 647/1/1 648/2/1 622/3/1 621/4/1
f 648/1/1 649/2/1 623/3/1 622/4/1
f 649/1/1 650/2/1 624/3/1 623/4/1
f 651/1/1 652/2/1 626/3/1 625/4/1
f 652/1/1 653/2/1 627/3/1 626/4/1
f 653/1/1 654/2/1 628/3/1 627/4/1
f 654/1/1 655/2/1 629/3/1 628/4/1
f 655/1/1 656/2/1 630/3/1 629/4/1
f 656/1/1 657/2/1 631/3/1 630/4/1
f 657/1/1 658/2/1 632/3/1 631/4/1
f 658/1/1 659/2/1 633/3/1 632/4/1
f 659/1/1 660/2/1 634/3/1 633/4/1
f 660/1/1 661/2/1 635/3/1 634/4/1
f 661/1/1 662/2/1 636/3/1 635/4/1
f 662/1/1 663/2/1 637/3/1 636/4/1
f 663/1/1 664/2/1 638/3/1 637/4/1
f 664/1/1 665/2/1 639/3/1 638/4/1
f 665/1/1 666/2/1 640/3/1 639/4/1
f 666/1/1 667/2/1 641/3/1 640/4/1
f 667/1/1 668/2/1 642/3/1 641/4/1
f 668/1/1 669/2/1 643/3/1 642/4/1
f 669/1/1 670/2/1 644/3/1 643/4/1
f 670/1/1 671/2/1 645/3/1 644/4/1
f 671/1/1 672/2/1 646/3/1 645/4/1
f 672/1/1 673/2/1 647/3/1 646/4/1
f 673/1/1 674/2/1 648/3/1 647/4/1
f 674/1/1 675/2/1 649/3/1 648/4/1
f 675/1/1 676/2/1 650/3/1 649/4/1

g mesh_0002
f 180/5/1 181/6/1 155/7/1 154/8/1
f 181/9/1 182/10/1 156/11/1 155/12/1
f 204/5/1 205/6/1 179/7/1 178/8/1
f 205/9/1 206/10/1 180/11/1 179/12/1
f 206/13/1 207/14/1 181/15/1 180/16/1
f 207/17/1 208/18/1 182/19/1 181/20/1
f 229/5/1 230/6/1 204/7/1 203/8/1
f 230/13/1 231/14/1 205/15/1 204/16/1
f 231/17/1 232/18/1 206/19/1 205/20/1
f 232/17/1 233/18/1 207/19/1 206/20/1
f 233/17/1 234/18/1 208/19/1 207/20/1
f 254/5/1 255/6/1 229/7/1 228/8/1
f 255/13/1 256/14/1 230/15/1 229/16/1
f 256/17/1 257/18/1 231/19/1 230/20/1
f 257/17/1 258/18/1 232/19/1 231/20/1
f 258/17/1 259/18/1 233/19/1 232/20/1
f 259/17/1 260/18/1 234/19/1 233/20/1
f 277/5/1 278/6/1 252/7/1 251/8/1
f 278/9/1 279/10/1 253/11/1 252/12/1
f 279/9/1 280/10/1 254/11/1 253/12/1
f 280/13/1 281/14/1 255/15/1 254/16/1
f 281/17/1 282/18/1 256/19/1 255/20/1
f 282/17/1 283/18/1 257/19/1 256/20/1
f 283/17/1 284/18/1 258/19/1 257/20/1
f 284/17/1 285/18/1 259/19/1 258/20/1
f 285/17/1 286/18/1 260/19/1 259/20/1
f 303/21/1 304/22/1 278/23/1 277/24/1
f 304/17/1 305/18/1 279/19/1 278/20/1
f 305/17/1 306/18/1 280/19/1 279/20/1
f 306/17/1 307/18/1 281/19/1 280/20/1
f 307/17/1 308/18/1 282/19/1 281/20/1
f 308/17/1 309/18/1 283/19/1 282/20/1
f 309/17/1 310/18/1 284/19/1 283/20/1
f 310/25/1 311/26/1 285/27/1 284/28/1
f 311/29/1 312/30/1 286/31/1 285/32/1
f 326/5/1 327/6/1 301/7/1 300/8/1
f 327/9/1 328/10/1 302/11/1 301/12/1
f 328/9/1 329/10/1 303/11/1 302/12/1
f 329/13/1 330/14/1 304/15/1 303/16/1
f 330/17/1 331/18/1 305/19/1 304/20/1
f 331/17/1 332/18/1 306/19/1 305/20/1
f 332/17/1 333/18/1 307/19/1 306/20/1
f 333/17/1 334/18/1 308/19/1 307/20/1
f 334/17/1 335/18/1 309/19/1 308/20/1
f 335/25/1 336/26/1 310/27/1 309/28/1
f 336/33/1 337/34/1 311/35/1 310/36/1
f 342/5/1 343/6/1 317/7/1 316/8/1
f 343/9/1 344/10/1 318/11/1 317/12/1
f 344/9/1 345/10/1 319/11/1 318/12/1
f 345/9/1 346/10/1 320/11/1 319/12/1
f 346/9/1 347/10/1 321/11/1 320/12/1
f 347/37/1 348/38/1 322/39/1 321/40/1
f 351/5/1 352/6/1 326/7/1 325/8/1
f 352/13/1 353/14/1 327/15/1 326/16/1
f 353/17/1 354/18/1 328/19/1 327/20/1
f 354/17/1 355/18/1 329/19/1 328/20/1
f 355/17/1 356/18/1 330/19/1 329/20/1
f 356/17/1 357/18/1 331/19/1 330/20/1
f 357/17/1 358/18/1 332/19/1 331/20/1
f 358/25/1 359/26/1 333/27/1 332/28/1
f 359/29/1 360/30/1 334/31/1 333/32/1
f 360/29/1 361/30/1 335/31/1 334/32/1
f 361/33/1 362/34/1 336/35/1 335/36/1
f 368/21/1 369/22/1 343/23/1 342/24/1
f 369/17/1 370/18/1 344/19/1 343/20/1
f 370/17/1 371/18/1 345/19/1 344/20/1
f 371/17/1 372/18/1 346/19/1 345/20/1
f 372/17/1 373/18/1 347/19/1 346/20/1
f 373/41/1 374/42/1 348/43/1 347/44/1
f 377/21/1 378/22/1 352/23/1 351/24/1
f 378/17/1 379/18/1 353/19/1 352/20/1
f 379/17/1 380/18/1 354/19/1 353/20/1
f 380/17/1 381/18/1 355/19/1 354/20/1
f 381/17/1 382/18/1 356/19/1 355/20/1
f 382/17/1 383/18/1 357/19/1 356/20/1
f 383/25/1 384/26/1 358/27/1 357/28/1
f 384/33/1 385/34/1 359/35/1 358/36/1
f 394/21/1 395/22/1 369/23/1 368/24/1
f 395/17/1 396/18/1 370/19/1 369/20/1
f 396/17/1 397/18/1 371/19/1 370/20/1
f 397/17/1 398/18/1 372/19/1 371/20/1
f 398/17/1 399/18/1 373/19/1 372/20/1
f 399/41/1 400/42/1 374/43/1 373/44/1
f 400/5/1 401/6/1 375/7/1 374/8/1
f 401/9/1 402/10/1 376/11/1 375/12/1
f 402/9/1 403/10/1 377/11/1 376/12/1
f 403/13/1 404/14/1 378/15/1 377/16/1
f 404/17/1 405/18/1 379/19/1 378/20/1
f 405/17/1 406/18/1 380/19/1 379/20/1
f 406/17/1 407/18/1 381/19/1 380/20/1
f 407/17/1 408/18/1 382/19/1 381/20/1
f 408/25/1 409/26/1 383/27/1 382/28/1
f 409/33/1 410/34/1 384/35/1 383/36/1
f 420/21/1 421/22/1 395/23/1 394/24/1
f 421/17/1 422/18/1 396/19/1 395/20/1
f 422/17/1 423/18/1 397/19/1 396/20/1
f 423/17/1 424/18/1 398/19/1 397/20/1
f 424/17/1 425/18/1 399/19/1 398/20/1
f 425/45/1 426/46/1 400/47/1 399/48/1
f 426/13/1 427/14/1 401/15/1 400/16/1
f 427/17/1 428/18/1 402/19/1 401/20/1
f 428/17/1 429/18/1 403/19/1 402/20/1
f 429/17/1 430/18/1 404/19/1 403/20/1
f 430/17/1 431/18/1 405/19/1 404/20/1
f 431/25/1 432/26/1 406/27/1 405/28/1
f 432/29/1 433/30/1 407/31/1 406/32/1
f 433/29/1 434/30/1 408/31/1 407/32/1
f 434/33/1 435/34/1 409/35/1 408/36/1
f 446/21/1 447/22/1 421/23/1 420/24/1
f 447/17/1 448/18/1 422/19/1 421/20/1
f 448/17/1 449/18/1 423/19/1 422/20/1
f 449/17/1 450/18/1 424/19/1 423/20/1
f 450/17/1 451/18/1 425/19/1 424/20/1
f 451/17/1 452/18/1 426/19/1 425/20/1
f 452/17/1 453/18/1 427/19/1 426/20/1
f 453/17/1 454/18/1 428/19/1 427/20/1
f 454/17/1 455/18/1 429/19/1 428/20/1
f 455/17/1 456/18/1 430/19/1 429/20/1
f 456/25/1 457/26/1 431/27/1 430/28/1
f 457/33/1 458/34/1 432/35/1 431/36/1
f 472/21/1 473/22/1 447/23/1 446/24/1
f 473/17/1 474/18/1 448/19/1 447/20/1
f 474/17/1 475/18/1 449/19/1 448/20/1
f 475/17/1 476/18/1 450/19/1 449/20/1
f 476/17/1 477/18/1 451/19/1 450/20/1
f 477/17/1 478/18/1 452/19/1 451/20/1
f 478/17/1 479/18/1 453/19/1 452/20/1
f 479/25/1 480/26/1 454/27/1 453/28/1
f 480/29/1 481/30/1 455/31/1 454/32/1
f 481/29/1 482/30/1 456/31/1 455/32/1
f 482/33/1 483/34/1 457/35/1 456/36/1
f 498/21/1 499/22/1 473/23/1 472/24/1
f 499/17/1 500/18/1 474/19/1 473/20/1
f 500/17/1 501/18/1 475/19/1 474/20/1
f 501/17/1 502/18/1 476/19/1 475/20/1
f 502/17/1 503/18/1 477/19/1 476/20/1
f 503/17/1 504/18/1 478/19/1 477/20/1
f 504/25/1 505/26/1 479/27/1 478/28/1
f 505/33/1 506/34/1 480/35/1 479/36/1
f 524/49/1 525/50/1 499/51/1 498/52/1
f 525/53/1 526/54/1 500/55/1 499/56/1
f 526/17/1 527/18/1 501/19/1 500/20/1
f 527/17/1 528/18/1 502/19/1 501/20/1
f 528/17/1 529/18/1 503/19/1 502/20/1
f 529/17/1 530/18/1 504/19/1 503/20/1
f 530/41/1 531/42/1 505/43/1 504/44/1
f 551/49/1 552/50/1 526/51/1 525/52/1
f 552/29/1 553/30/1 527/31/1 526/32/1
f 553/29/1 554/30/1 528/31/1 527/32/1
f 554/29/1 555/30/1 529/31/1 528/32/1
f 555/29/1 556/30/1 530/31/1 529/32/1
f 556/33/1 557/34/1 531/35/1 530/36/1

g mesh_0003
f 243/57/1 244/58/1 218/59/1 217/60/1
f 262/61/1 263/62/1 237/63/1 236/64/1
f 263/65/1 264/66/1 238/67/1 237/68/1
f 264/65/1 265/66/1 239/67/1 238/68/1
f 265/69/1 266/70/1 240/71/1 239/72/1
f 266/73/1 267/74/1 241/75/1 240/76/1
f 267/77/1 268/78/1 242/79/1 241/80/1
f 268/65/1 269/66/1 243/67/1 242/68/1
f 269/65/1 270/66/1 244/67/1 243/68/1
f 270/81/1 271/82/1 245/83/1 244/84/1
f 291/85/1 292/86/1 266/87/1 265/88/1
f 292/89/1 293/90/1 267/91/1 266/92/1
f 293/93/1 294/94/1 268/95/1 267/96/1
f 317/97/1 318/98/1 292/99/1 291/100/1
f 318/101/1 319/102/1 293/103/1 292/104/1
f 319/105/1 320/106/1 294/107/1 293/108/1

g mesh_0004
f 184/109/1 185/110/1 159/111/1 158/112/1
f 185/109/1 186/110/1 160/111/1 159/112/1
f 186/109/1 187/110/1 161/111/1 160/112/1
f 187/109/1 188/110/1 162/111/1 161/112/1
f 188/109/1 189/110/1 163/111/1 162/112/1
f 189/109/1 190/110/1 164/111/1 163/112/1
f 190/109/1 191/110/1 165/111/1 164/112/1
f 191/113/1 192/114/1 166/115/1 165/116/1
f 192/117/1 193/118/1 167/119/1 166/120/1
f 210/121/1 211/122/1 185/123/1 184/124/1
f 211/121/1 212/122/1 186/123/1 185/124/1
f 212/121/1 213/122/1 187/123/1 186/124/1
f 213/121/1 214/122/1 188/123/1 187/124/1
f 214/121/1 215/122/1 189/123/1 188/124/1
f 215/121/1 216/122/1 190/123/1 189/124/1
f 216/121/1 217/122/1 191/123/1 190/124/1
f 217/125/1 218/126/1 192/127/1 191/128/1
f 218/129/1 219/130/1 193/131/1 192/132/1
f 236/133/1 237/134/1 211/135/1 210/136/1
f 237/137/1 238/138/1 212/139/1 211/140/1
f 238/137/1 239/138/1 213/139/1 212/140/1
f 239/137/1 240/138/1 214/139/1 213/140/1
f 240/137/1 241/138/1 215/139/1 214/140/1
f 241/137/1 242/138/1 216/139/1 215/140/1
f 242/137/1 243/138/1 217/139/1 216/140/1
f 243/137/1 244/138/1 218/139/1 217/140/1
f 244/141/1 245/142/1 219/143/1 218/144/1
f 265/145/1 266/146/1 240/147/1 239/148/1
f 267/149/1 268/150/1 242/151/1 241/152/1
f 291/133/1 292/134/1 266/135/1 265/136/1
f 293/141/1 294/142/1 268/143/1 267/144/1
f 318/153/1 319/154/1 293/155/1 292/156/1

g mesh_0005
f 266/157/1 267/158/1 241/159/1 240/160/1
f 292/161/1 293/162/1 267/163/1 266/164/1

g mesh_0006
f 211/165/1 212/166/1 186/167/1 185/168/1
f 217/165/1 218/166/1 192/167/1 191/168/1
f 237/169/1 238/170/1 212/171/1 211/172/1
f 243/169/1 244/170/1 218/171/1 217/172/1

g mesh_0007
f 82/173/1 83/174/1 57/175/1 56/176/1
f 86/173/1 87/174/1 61/175/1 60/176/1
f 107/177/1 108/178/1 82/179/1 81/180/1
f 108/181/1 109/182/1 83/183/1 82/184/1
f 109/185/1 110/186/1 84/187/1 83/188/1
f 110/189/1 111/190/1 85/191/1 84/192/1
f 111/177/1 112/178/1 86/179/1 85/180/1
f 112/181/1 113/182/1 87/183/1 86/184/1
f 113/185/1 114/186/1 88/187/1 87/188/1
f 132/177/1 133/178/1 107/179/1 106/180/1
f 133/193/1 134/194/1 108/195/1 107/196/1
f 134/197/1 135/198/1 109/199/1 108/200/1
f 135/201/1 136/202/1 110/203/1 109/204/1
f 136/205/1 137/206/1 111/207/1 110/208/1
f 137/209/1 138/210/1 112/211/1 111/212/1
f 138/197/1 139/198/1 113/199/1 112/200/1
f 139/213/1 140/214/1 114/215/1 113/216/1
f 140/185/1 141/186/1 115/187/1 114/188/1
f 157/217/1 158/218/1 132/219/1 131/220/1
f 158/193/1 159/194/1 133/195/1 132/196/1
f 159/209/1 160/210/1 134/211/1 133/212/1
f 160/221/1 161/222/1 135/223/1 134/224/1
f 161/201/1 162/202/1 136/203/1 135/204/1
f 162/197/1 163/198/1 137/199/1 136/200/1
f 163/209/1 164/210/1 138/211/1 137/212/1
f 164/221/1 165/222/1 139/223/1 138/224/1
f 165/201/1 166/202/1 140/203/1 139/204/1
f 166/213/1 167/214/1 141/215/1 140/216/1
f 167/225/1 168/226/1 142/227/1 141/228/1
f 183/229/1 184/230/1 158/231/1 157/232/1
f 184/209/1 185/210/1 159/211/1 158/212/1
f 185/233/1 186/234/1 160/235/1 159/236/1
f 186/237/1 187/238/1 161/239/1 160/240/1
f 187/241/1 188/242/1 162/243/1 161/244/1
f 188/197/1 189/198/1 163/199/1 162/200/1
f 189/233/1 190/234/1 164/235/1 163/236/1
f 190/237/1 191/238/1 165/239/1 164/240/1
f 191/241/1 192/242/1 166/243/1 165/244/1
f 192/201/1 193/202/1 167/203/1 166/204/1
f 193/245/1 194/246/1 168/247/1 167/248/1
f 209/249/1 210/250/1 184/251/1 183/252/1
f 210/233/1 211/234/1 185/235/1 184/236/1
f 211/237/1 212/238/1 186/239/1 185/240/1
f 212/237/1 213/238/1 187/239/1 186/240/1
f 213/253/1 214/254/1 188/255/1 187/256/1
f 214/197/1 215/198/1 189/199/1 188/200/1
f 215/257/1 216/258/1 190/259/1 189/260/1
f 216/237/1 217/238/1 191/239/1 190/240/1
f 217/237/1 218/238/1 192/239/1 191/240/1
f 218/241/1 219/242/1 193/243/1 192/244/1
f 219/261/1 220/262/1 194/263/1 193/264/1
f 235/265/1 236/266/1 210/267/1 209/268/1
f 236/269/1 237/270/1 211/271/1 210/272/1
f 238/229/1 239/230/1 213/231/1 212/232/1
f 239/209/1 240/210/1 214/211/1 213/212/1
f 240/221/1 241/222/1 215/223/1 214/224/1
f 241/201/1 242/202/1 216/203/1 215/204/1
f 242/245/1 243/246/1 217/247/1 216/248/1
f 244/273/1 245/274/1 219/275/1 218/276/1
f 245/277/1 246/278/1 220/279/1 219/280/1
f 264/249/1 265/250/1 239/251/1 238/252/1
f 265/233/1 266/234/1 240/235/1 239/236/1
f 266/237/1 267/238/1 241/239/1 240/240/1
f 267/241/1 268/242/1 242/243/1 241/244/1
f 268/261/1 269/262/1 243/263/1 242/264/1
f 290/265/1 291/266/1 265/267/1 264/268/1
f 291/269/1 292/270/1 266/271/1 265/272/1
f 292/281/1 293/282/1 267/283/1 266/284/1
f 293/273/1 294/274/1 268/275/1 267/276/1
f 294/277/1 295/278/1 269/279/1 268/280/1

g mesh_0008
f 25/285/1 27/286/1 28/287/1 26/288/1
f 27/289/1 29/290/1 30/291/1 28/292/1
f 56/285/1 57/286/1 9/287/1 7/288/1
f 57/289/1 58/290/1 11/291/1 9/292/1
f 65/293/1 66/294/1 27/295/1 25/296/1
f 66/297/1 67/298/1 29/299/1 27/300/1
f 68/285/1 69/286/1 33/287/1 31/288/1
f 69/289/1 70/290/1 35/291/1 33/292/1
f 80/301/1 81/302/1 55/303/1 54/304/1
f 81/305/1 82/306/1 56/307/1 55/308/1
f 82/293/1 83/294/1 57/295/1 56/296/1
f 83/297/1 84/298/1 58/299/1 57/300/1
f 92/285/1 93/286/1 67/287/1 66/288/1
f 93/289/1 94/290/1 68/291/1 67/292/1
f 94/293/1 95/294/1 69/295/1 68/296/1
f 95/297/1 96/298/1 70/299/1 69/300/1
f 99/309/1 100/310/1 74/311/1 73/312/1
f 100/313/1 101/314/1 75/315/1 74/316/1
f 101/317/1 102/318/1 76/319/1 75/320/1
f 115/309/1 116/310/1 90/311/1 89/312/1
f 116/313/1 117/314/1 91/315/1 90/316/1
f 117/317/1 118/318/1 92/319/1 91/320/1
f 118/293/1 119/294/1 93/295/1 92/296/1
f 119/297/1 120/298/1 94/299/1 93/300/1
f 128/285/1 129/286/1 103/287/1 102/288/1
f 129/289/1 130/290/1 104/291/1 103/292/1
f 143/285/1 144/286/1 118/287/1 117/288/1
f 144/289/1 145/290/1 119/291/1 118/292/1
f 150/285/1 151/286/1 125/287/1 124/288/1
f 151/289/1 152/290/1 126/291/1 125/292/1
f 152/285/1 153/286/1 127/287/1 126/288/1
f 153/289/1 154/290/1 128/291/1 127/292/1
f 154/293/1 155/294/1 129/295/1 128/296/1
f 155/297/1 156/298/1 130/299/1 129/300/1
f 169/293/1 170/294/1 144/295/1 143/296/1
f 170/297/1 171/298/1 145/299/1 144/300/1
f 173/321/1 174/322/1 148/323/1 147/324/1
f 174/325/1 175/326/1 149/327/1 148/328/1
f 175/329/1 176/330/1 150/331/1 149/332/1
f 176/293/1 177/294/1 151/295/1 150/296/1
f 177/297/1 178/298/1 152/299/1 151/300/1
f 178/293/1 179/294/1 153/295/1 152/296/1
f 179/297/1 180/298/1 154/299/1 153/300/1
f 223/301/1 224/302/1 198/303/1 197/304/1
f 224/285/1 225/286/1 199/287/1 198/288/1
f 225/289/1 226/290/1 200/291/1 199/292/1
f 226/285/1 227/286/1 201/287/1 200/288/1
f 227/289/1 228/290/1 202/291/1 201/292/1
f 228/333/1 229/334/1 203/335/1 202/336/1
f 229/337/1 230/338/1 204/339/1 203/340/1
f 250/293/1 251/294/1 225/295/1 224/296/1
f 251/297/1 252/298/1 226/299/1 225/300/1
f 252/293/1 253/294/1 227/295/1 226/296/1
f 253/297/1 254/298/1 228/299/1 227/300/1
f 272/309/1 273/310/1 247/311/1 246/312/1
f 273/313/1 274/314/1 248/315/1 247/316/1
f 274/317/1 275/318/1 249/319/1 248/320/1
f 275/285/1 276/286/1 250/287/1 249/288/1
f 276/289/1 277/290/1 251/291/1 250/292/1
f 301/293/1 302/294/1 276/295/1 275/296/1
f 302/297/1 303/298/1 277/299/1 276/300/1
f 313/333/1 314/334/1 288/335/1 287/336/1
f 314/337/1 315/338/1 289/339/1 288/340/1
f 336/285/1 337/286/1 311/287/1 310/288/1
f 337/289/1 338/290/1 312/291/1 311/292/1
f 340/285/1 341/286/1 315/287/1 314/288/1
f 341/289/1 342/290/1 316/291/1 315/292/1
f 349/341/1 350/342/1 324/343/1 323/344/1
f 350/345/1 351/346/1 325/347/1 324/348/1
f 362/293/1 363/294/1 337/295/1 336/296/1
f 363/297/1 364/298/1 338/299/1 337/300/1
f 366/293/1 367/294/1 341/295/1 340/296/1
f 367/297/1 368/298/1 342/299/1 341/300/1
f 375/349/1 376/350/1 350/351/1 349/352/1
f 376/353/1 377/354/1 351/355/1 350/356/1
f 384/285/1 385/286/1 359/287/1 358/288/1
f 385/289/1 386/290/1 360/291/1 359/292/1
f 391/285/1 392/286/1 366/287/1 365/288/1
f 392/289/1 393/290/1 367/291/1 366/292/1
f 410/293/1 411/294/1 385/295/1 384/296/1
f 411/297/1 412/298/1 386/299/1 385/300/1
f 412/321/1 413/322/1 387/323/1 386/324/1
f 413/325/1 414/326/1 388/327/1 387/328/1
f 414/329/1 415/330/1 389/331/1 388/332/1
f 417/293/1 418/294/1 392/295/1 391/296/1
f 418/297/1 419/298/1 393/299/1 392/300/1
f 458/285/1 459/286/1 433/287/1 432/288/1
f 459/289/1 460/290/1 434/291/1 433/292/1
f 460/357/1 461/358/1 435/359/1 434/360/1
f 461/361/1 462/362/1 436/363/1 435/364/1
f 462/365/1 463/366/1 437/367/1 436/368/1
f 466/285/1 467/286/1 441/287/1 440/288/1
f 467/289/1 468/290/1 442/291/1 441/292/1
f 470/285/1 471/286/1 445/287/1 444/288/1
f 471/289/1 472/290/1 446/291/1 445/292/1
f 482/285/1 483/286/1 457/287/1 456/288/1
f 483/289/1 484/290/1 458/291/1 457/292/1
f 484/293/1 485/294/1 459/295/1 458/296/1
f 485/297/1 486/298/1 460/299/1 459/300/1
f 492/293/1 493/294/1 467/295/1 466/296/1
f 493/297/1 494/298/1 468/299/1 467/300/1
f 495/301/1 496/302/1 470/303/1 469/304/1
f 496/293/1 497/294/1 471/295/1 470/296/1
f 497/297/1 498/298/1 472/299/1 471/300/1
f 508/293/1 509/294/1 483/295/1 482/296/1
f 509/297/1 510/298/1 484/299/1 483/300/1
f 510/333/1 511/334/1 485/335/1 484/336/1
f 511/337/1 512/338/1 486/339/1 485/340/1
f 516/301/1 517/302/1 491/303/1 490/304/1
f 517/305/1 518/306/1 492/307/1 491/308/1
f 532/301/1 533/302/1 507/303/1 506/304/1
f 533/305/1 534/306/1 508/307/1 507/308/1
f 553/285/1 554/286/1 528/287/1 527/288/1
f 554/289/1 555/290/1 529/291/1 528/292/1
f 567/285/1 568/286/1 542/287/1 541/288/1
f 568/289/1 569/290/1 543/291/1 542/292/1
f 576/309/1 577/310/1 551/311/1 550/312/1
f 577/313/1 578/314/1 552/315/1 551/316/1
f 578/317/1 579/318/1 553/319/1 552/320/1
f 579/293/1 580/294/1 554/295/1 553/296/1
f 580/297/1 581/298/1 555/299/1 554/300/1
f 590/309/1 591/310/1 565/311/1 564/312/1
f 591/313/1 592/314/1 566/315/1 565/316/1
f 592/317/1 593/318/1 567/319/1 566/320/1
f 593/293/1 594/294/1 568/295/1 567/296/1
f 594/297/1 595/298/1 569/299/1 568/300/1
f 602/285/1 603/286/1 577/287/1 576/288/1
f 603/289/1 604/290/1 578/291/1 577/292/1
f 607/321/1 608/322/1 582/323/1 581/324/1
f 608/325/1 609/326/1 583/327/1 582/328/1
f 609/329/1 610/330/1 584/331/1 583/332/1
f 611/301/1 612/302/1 586/303/1 585/304/1
f 612/305/1 613/306/1 587/307/1 586/308/1
f 616/285/1 617/286/1 591/287/1 590/288/1
f 617/289/1 618/290/1 592/291/1 591/292/1
f 625/309/1 626/310/1 600/311/1 599/312/1
f 626/313/1 627/314/1 601/315/1 600/316/1
f 627/317/1 628/318/1 602/319/1 601/320/1
f 628/293/1 629/294/1 603/295/1 602/296/1
f 629/297/1 630/298/1 604/299/1 603/300/1
f 642/293/1 643/294/1 617/295/1 616/296/1
f 643/297/1 644/298/1 618/299/1 617/300/1
f 647/309/1 648/310/1 622/311/1 621/312/1
f 648/313/1 649/314/1 623/315/1 622/316/1
f 649/317/1 650/318/1 624/319/1 623/320/1

g mesh_0009
f 2/369/1 5/370/1 6/371/1 3/372/1
f 5/373/1 7/374/1 8/375/1 6/376/1
f 21/377/1 23/378/1 24/379/1 22/380/1
f 23/381/1 25/382/1 26/383/1 24/384/1
f 25/385/1 27/386/1 28/387/1 26/388/1
f 41/389/1 43/390/1 44/391/1 42/392/1
f 43/393/1 45/394/1 46/395/1 44/396/1
f 45/397/1 47/398/1 48/399/1 46/400/1
f 54/401/1 55/402/1 5/403/1 2/404/1
f 55/405/1 56/406/1 7/407/1 5/408/1
f 63/389/1 64/390/1 23/391/1 21/392/1
f 64/393/1 65/394/1 25/395/1 23/396/1
f 65/397/1 66/398/1 27/399/1 25/400/1
f 73/409/1 74/410/1 43/411/1 41/412/1
f 74/413/1 75/414/1 45/415/1 43/416/1
f 75/417/1 76/418/1 47/419/1 45/420/1
f 89/409/1 90/410/1 64/411/1 63/412/1
f 90/413/1 91/414/1 65/415/1 64/416/1
f 91/417/1 92/418/1 66/419/1 65/420/1
f 95/421/1 96/422/1 70/423/1 69/424/1
f 96/425/1 97/426/1 71/427/1 70/428/1
f 97/429/1 98/430/1 72/431/1 71/432/1
f 121/433/1 122/434/1 96/435/1 95/436/1
f 122/437/1 123/438/1 97/439/1 96/440/1
f 123/441/1 124/442/1 98/443/1 97/444/1
f 124/445/1 125/446/1 99/447/1 98/448/1
f 125/449/1 126/450/1 100/451/1 99/452/1
f 147/453/1 148/454/1 122/455/1 121/456/1
f 148/457/1 149/458/1 123/459/1 122/460/1
f 149/461/1 150/462/1 124/463/1 123/464/1
f 150/465/1 151/466/1 125/467/1 124/468/1
f 151/469/1 152/470/1 126/471/1 125/472/1
f 171/369/1 172/370/1 146/371/1 145/372/1
f 172/373/1 173/374/1 147/375/1 146/376/1
f 176/473/1 177/474/1 151/475/1 150/476/1
f 177/477/1 178/478/1 152/479/1 151/480/1
f 194/377/1 195/378/1 169/379/1 168/380/1
f 195/381/1 196/382/1 170/383/1 169/384/1
f 196/385/1 197/386/1 171/387/1 170/388/1
f 197/401/1 198/402/1 172/403/1 171/404/1
f 198/405/1 199/406/1 173/407/1 172/408/1
f 202/481/1 203/482/1 177/483/1 176/484/1
f 203/485/1 204/486/1 178/487/1 177/488/1
f 209/445/1 210/446/1 184/447/1 183/448/1
f 210/449/1 211/450/1 185/451/1 184/452/1
f 220/389/1 221/390/1 195/391/1 194/392/1
f 221/393/1 222/394/1 196/395/1 195/396/1
f 222/397/1 223/398/1 197/399/1 196/400/1
f 235/465/1 236/466/1 210/467/1 209/468/1
f 236/469/1 237/470/1 211/471/1 210/472/1
f 246/409/1 247/410/1 221/411/1 220/412/1
f 247/413/1 248/414/1 222/415/1 221/416/1
f 248/417/1 249/418/1 223/419/1 222/420/1
f 261/473/1 262/474/1 236/475/1 235/476/1
f 262/477/1 263/478/1 237/479/1 236/480/1
f 287/481/1 288/482/1 262/483/1 261/484/1
f 288/485/1 289/486/1 263/487/1 262/488/1
f 334/421/1 335/422/1 309/423/1 308/424/1
f 335/425/1 336/426/1 310/427/1 309/428/1
f 336/429/1 337/430/1 311/431/1 310/432/1
f 360/433/1 361/434/1 335/435/1 334/436/1
f 361/437/1 362/438/1 336/439/1 335/440/1
f 362/441/1 363/442/1 337/443/1 336/444/1
f 382/489/1 383/490/1 357/491/1 356/492/1
f 383/493/1 384/494/1 358/495/1 357/496/1
f 384/497/1 385/498/1 359/499/1 358/500/1
f 386/453/1 387/454/1 361/455/1 360/456/1
f 387/457/1 388/458/1 362/459/1 361/460/1
f 388/461/1 389/462/1 363/463/1 362/464/1
f 406/445/1 407/446/1 381/447/1 380/448/1
f 407/449/1 408/450/1 382/451/1 381/452/1
f 408/501/1 409/502/1 383/503/1 382/504/1
f 409/505/1 410/506/1 384/507/1 383/508/1
f 410/509/1 411/510/1 385/511/1 384/512/1
f 432/465/1 433/466/1 407/467/1 406/468/1
f 433/469/1 434/470/1 408/471/1 407/472/1
f 434/513/1 435/514/1 409/515/1 408/516/1
f 435/517/1 436/518/1 410/519/1 409/520/1
f 436/521/1 437/522/1 411/523/1 410/524/1
f 443/369/1 444/370/1 418/371/1 417/372/1
f 444/373/1 445/374/1 419/375/1 418/376/1
f 458/473/1 459/474/1 433/475/1 432/476/1
f 459/477/1 460/478/1 434/479/1 433/480/1
f 464/369/1 465/370/1 439/371/1 438/372/1
f 465/373/1 466/374/1 440/375/1 439/376/1
f 469/401/1 470/402/1 444/403/1 443/404/1
f 470/405/1 471/406/1 445/407/1 444/408/1
f 480/369/1 481/370/1 455/371/1 454/372/1
f 481/373/1 482/374/1 456/375/1 455/376/1
f 484/481/1 485/482/1 459/483/1 458/484/1
f 485/485/1 486/486/1 460/487/1 459/488/1
f 490/401/1 491/402/1 465/403/1 464/404/1
f 491/405/1 492/406/1 466/407/1 465/408/1
f 498/377/1 499/378/1 473/379/1 472/380/1
f 499/381/1 500/382/1 474/383/1 473/384/1
f 500/385/1 501/386/1 475/387/1 474/388/1
f 506/401/1 507/402/1 481/403/1 480/404/1
f 507/405/1 508/406/1 482/407/1 481/408/1
f 512/377/1 513/378/1 487/379/1 486/380/1
f 513/381/1 514/382/1 488/383/1 487/384/1
f 514/385/1 515/386/1 489/387/1 488/388/1
f 524/389/1 525/390/1 499/391/1 498/392/1
f 525/393/1 526/394/1 500/395/1 499/396/1
f 526/397/1 527/398/1 501/399/1 500/400/1
f 529/421/1 530/422/1 504/423/1 503/424/1
f 530/425/1 531/426/1 505/427/1 504/428/1
f 531/429/1 532/430/1 506/431/1 505/432/1
f 538/389/1 539/390/1 513/391/1 512/392/1
f 539/393/1 540/394/1 514/395/1 513/396/1
f 540/397/1 541/398/1 515/399/1 514/400/1
f 547/377/1 548/378/1 522/379/1 521/380/1
f 548/381/1 549/382/1 523/383/1 522/384/1
f 549/385/1 550/386/1 524/387/1 523/388/1
f 550/409/1 551/410/1 525/411/1 524/412/1
f 551/413/1 552/414/1 526/415/1 525/416/1
f 552/417/1 553/418/1 527/419/1 526/420/1
f 555/433/1 556/434/1 530/435/1 529/436/1
f 556/437/1 557/438/1 531/439/1 530/440/1
f 557/441/1 558/442/1 532/443/1 531/444/1
f 559/369/1 560/370/1 534/371/1 533/372/1
f 560/373/1 561/374/1 535/375/1 534/376/1
f 564/409/1 565/410/1 539/411/1 538/412/1
f 565/413/1 566/414/1 540/415/1 539/416/1
f 566/417/1 567/418/1 541/419/1 540/420/1
f 569/377/1 570/378/1 544/379/1 543/380/1
f 570/381/1 571/382/1 545/383/1 544/384/1
f 571/385/1 572/386/1 546/387/1 545/388/1
f 573/389/1 574/390/1 548/391/1 547/392/1
f 574/393/1 575/394/1 549/395/1 548/396/1
f 575/397/1 576/398/1 550/399/1 549/400/1
f 581/453/1 582/454/1 556/455/1 555/456/1
f 582/457/1 583/458/1 557/459/1 556/460/1
f 583/461/1 584/462/1 558/463/1 557/464/1
f 585/401/1 586/402/1 560/403/1 559/404/1
f 586/405/1 587/406/1 561/407/1 560/408/1
f 595/389/1 596/390/1 570/391/1 569/392/1
f 596/393/1 597/394/1 571/395/1 570/396/1
f 597/397/1 598/398/1 572/399/1 571/400/1
f 599/409/1 600/410/1 574/411/1 573/412/1
f 600/413/1 601/414/1 575/415/1 574/416/1
f 601/417/1 602/418/1 576/419/1 575/420/1
f 621/409/1 622/410/1 596/411/1 595/412/1
f 622/413/1 623/414/1 597/415/1 596/416/1
f 623/417/1 624/418/1 598/419/1 597/420/1

g mesh_0010
f 7/197/1 9/525/1 10/526/1 8/200/1
f 9/527/1 11/528/1 12/529/1 10/530/1
f 11/531/1 13/532/1 14/533/1 12/448/1
f 13/197/1 15/525/1 16/526/1 14/200/1
f 15/197/1 17/525/1 18/526/1 16/200/1
f 17/527/1 19/528/1 20/529/1 18/530/1
f 19/527/1 21/528/1 22/529/1 20/530/1
f 21/527/1 23/528/1 24/529/1 22/530/1
f 35/527/1 37/528/1 38/529/1 36/530/1
f 37/197/1 39/525/1 40/526/1 38/200/1
f 39/531/1 41/532/1 42/533/1 40/448/1
f 47/197/1 49/525/1 50/526/1 48/200/1
f 49/197/1 51/525/1 52/526/1 50/200/1
f 53/531/1 54/532/1 2/533/1 1/448/1
f 58/531/1 59/532/1 13/533/1 11/448/1
f 61/527/1 62/528/1 19/529/1 17/530/1
f 62/527/1 63/528/1 21/529/1 19/530/1
f 71/197/1 72/525/1 39/526/1 37/200/1
f 76/531/1 77/532/1 49/533/1 47/448/1
f 77/531/1 78/532/1 51/533/1 49/448/1
f 79/527/1 80/528/1 54/529/1 53/530/1
f 84/531/1 85/532/1 59/533/1 58/448/1
f 85/197/1 86/525/1 60/526/1 59/200/1
f 98/197/1 99/525/1 73/526/1 72/200/1
f 115/197/1 116/525/1 90/526/1 89/200/1
f 126/527/1 127/528/1 101/529/1 100/530/1
f 127/531/1 128/532/1 102/533/1 101/448/1
f 141/531/1 142/532/1 116/533/1 115/448/1
f 142/197/1 143/525/1 117/526/1 116/200/1
f 249/531/1 250/532/1 224/533/1 223/448/1
f 271/527/1 272/528/1 246/529/1 245/530/1
f 274/531/1 275/532/1 249/533/1 248/448/1
f 299/531/1 300/532/1 274/533/1 273/448/1
f 300/197/1 301/525/1 275/526/1 274/200/1
f 389/197/1 390/525/1 364/526/1 363/200/1
f 393/527/1 394/528/1 368/529/1 367/530/1
f 414/197/1 415/525/1 389/526/1 388/200/1
f 415/531/1 416/532/1 390/533/1 389/448/1
f 419/531/1 420/532/1 394/533/1 393/448/1
f 440/527/1 441/528/1 415/529/1 414/530/1
f 445/531/1 446/532/1 420/533/1 419/448/1
f 463/531/1 464/532/1 438/533/1 437/448/1
f 486/531/1 487/532/1 461/533/1 460/448/1
f 487/527/1 488/528/1 462/529/1 461/530/1
f 488/527/1 489/528/1 463/529/1 462/530/1
f 518/527/1 519/528/1 493/529/1 492/530/1
f 519/531/1 520/532/1 494/533/1 493/448/1
f 522/527/1 523/528/1 497/529/1 496/530/1
f 523/197/1 524/525/1 498/526/1 497/200/1
f 534/527/1 535/528/1 509/529/1 508/530/1
f 537/197/1 538/525/1 512/526/1 511/200/1
f 544/527/1 545/528/1 519/529/1 518/530/1
f 545/531/1 546/532/1 520/533/1 519/448/1
f 558/197/1 559/525/1 533/526/1 532/200/1
f 562/531/1 563/532/1 537/533/1 536/448/1
f 563/531/1 564/532/1 538/533/1 537/448/1
f 587/527/1 588/528/1 562/529/1 561/530/1
f 588/527/1 589/528/1 563/529/1 562/530/1
f 589/197/1 590/525/1 564/526/1 563/200/1
f 604/531/1 605/532/1 579/533/1 578/448/1
f 605/527/1 606/528/1 580/529/1 579/530/1
f 606/531/1 607/532/1 581/533/1 580/448/1
f 609/197/1 610/525/1 584/526/1 583/200/1
f 610/197/1 611/525/1 585/526/1 584/200/1
f 613/527/1 614/528/1 588/529/1 587/530/1
f 614/197/1 615/525/1 589/526/1 588/200/1
f 615/531/1 616/532/1 590/533/1 589/448/1
f 618/197/1 619/525/1 593/526/1 592/200/1
f 619/527/1 620/528/1 594/529/1 593/530/1
f 620/197/1 621/525/1 595/526/1 594/200/1
f 636/197/1 637/525/1 611/526/1 610/200/1
f 637/531/1 638/532/1 612/533/1 611/448/1
f 638/197/1 639/525/1 613/526/1 612/200/1
f 645/531/1 646/532/1 620/533/1 619/448/1
f 646/531/1 647/532/1 621/533/1 620/448/1

g mesh_0011
f 33/534/1 35/535/1 36/536/1 34/537/1
f 59/538/1 60/539/1 15/540/1 13/541/1
f 60/542/1 61/543/1 17/544/1 15/545/1
f 70/546/1 71/547/1 37/548/1 35/549/1
f 72/550/1 73/551/1 41/552/1 39/553/1
f 86/554/1 87/555/1 61/556/1 60/557/1
f 88/542/1 89/543/1 63/544/1 62/545/1
f 103/554/1 104/555/1 78/556/1 77/557/1
f 105/550/1 106/551/1 80/552/1 79/553/1
f 131/554/1 132/555/1 106/556/1 105/557/1
f 146/558/1 147/559/1 121/560/1 120/561/1
f 168/562/1 169/563/1 143/564/1 142/565/1
f 199/558/1 200/559/1 174/560/1 173/561/1
f 201/550/1 202/551/1 176/552/1 175/553/1
f 298/566/1 299/567/1 273/568/1 272/569/1
f 316/562/1 317/563/1 291/564/1 290/565/1
f 323/566/1 324/567/1 298/568/1 297/569/1
f 339/562/1 340/563/1 314/564/1 313/565/1
f 438/550/1 439/551/1 413/552/1 412/553/1
f 439/558/1 440/559/1 414/560/1 413/561/1
f 441/538/1 442/539/1 416/540/1 415/541/1
f 489/550/1 490/551/1 464/552/1 463/553/1
f 514/550/1 515/551/1 489/552/1 488/553/1
f 515/534/1 516/535/1 490/536/1 489/537/1
f 521/570/1 522/571/1 496/572/1 495/573/1
f 535/538/1 536/539/1 510/540/1 509/541/1
f 541/554/1 542/555/1 516/556/1 515/557/1
f 543/550/1 544/551/1 518/552/1 517/553/1
f 584/566/1 585/567/1 559/568/1 558/569/1
f 631/558/1 632/559/1 606/560/1 605/561/1
f 633/562/1 634/563/1 608/564/1 607/565/1
f 634/542/1 635/543/1 609/544/1 608/545/1
f 635/562/1 636/563/1 610/564/1 609/565/1
f 639/534/1 640/535/1 614/536/1 613/537/1
f 640/558/1 641/559/1 615/560/1 614/561/1
f 651/558/1 652/559/1 626/560/1 625/561/1
f 652/562/1 653/563/1 627/564/1 626/565/1
f 653/550/1 654/551/1 628/552/1 627/553/1
f 655/574/1 656/575/1 630/576/1 629/577/1
f 656/542/1 657/543/1 631/544/1 630/545/1
f 658/554/1 659/555/1 633/556/1 632/557/1
f 659/574/1 660/575/1 634/576/1 633/577/1
f 660/542/1 661/543/1 635/544/1 634/545/1
f 662/578/1 663/579/1 637/580/1 636/581/1
f 663/574/1 664/575/1 638/576/1 637/577/1
f 664/566/1 665/567/1 639/568/1 638/569/1
f 667/558/1 668/559/1 642/560/1 641/561/1
f 668/542/1 669/543/1 643/544/1 642/545/1
f 669/582/1 670/583/1 644/584/1 643/585/1
f 670/534/1 671/535/1 645/536/1 644/537/1
f 671/558/1 672/559/1 646/560/1 645/561/1
f 672/566/1 673/567/1 647/568/1 646/569/1
f 673/570/1 674/571/1 648/572/1 647/573/1
f 674/566/1 675/567/1 649/568/1 648/569/1

g mesh_0012
f 294/197/1 295/198/1 269/199/1 268/200/1
f 295/586/1 296/525/1 270/526/1 269/587/1
f 296/527/1 297/588/1 271/589/1 270/530/1
f 320/221/1 321/222/1 295/223/1 294/224/1
f 321/201/1 322/202/1 296/203/1 295/204/1
f 322/229/1 323/230/1 297/231/1 296/232/1
f 325/590/1 326/532/1 300/533/1 299/591/1

g mesh_0013
f 25/592/1 27/270/1 28/529/1 26/448/1
f 27/592/1 29/270/1 30/529/1 28/448/1
f 56/592/1 57/270/1 9/529/1 7/448/1
f 57/592/1 58/270/1 11/529/1 9/448/1
f 65/592/1 66/270/1 27/529/1 25/448/1
f 66/592/1 67/270/1 29/529/1 27/448/1
f 68/592/1 69/270/1 33/529/1 31/448/1
f 69/592/1 70/270/1 35/529/1 33/448/1
f 74/592/1 75/270/1 45/529/1 43/448/1
f 80/592/1 81/270/1 55/529/1 54/448/1
f 81/592/1 82/270/1 56/529/1 55/448/1
f 82/592/1 83/270/1 57/529/1 56/448/1
f 83/592/1 84/270/1 58/529/1 57/448/1
f 90/592/1 91/270/1 65/529/1 64/448/1
f 92/592/1 93/270/1 67/529/1 66/448/1
f 93/592/1 94/270/1 68/529/1 67/448/1
f 94/592/1 95/270/1 69/529/1 68/448/1
f 95/592/1 96/270/1 70/529/1 69/448/1
f 100/592/1 101/270/1 75/529/1 74/448/1
f 108/592/1 109/270/1 83/529/1 82/448/1
f 112/592/1 113/270/1 87/529/1 86/448/1
f 116/592/1 117/270/1 91/529/1 90/448/1
f 118/592/1 119/270/1 93/529/1 92/448/1
f 119/592/1 120/270/1 94/529/1 93/448/1
f 128/592/1 129/270/1 103/529/1 102/448/1
f 129/592/1 130/270/1 104/529/1 103/448/1
f 133/592/1 134/270/1 108/529/1 107/448/1
f 134/592/1 135/270/1 109/529/1 108/448/1
f 135/592/1 136/270/1 110/529/1 109/448/1
f 136/592/1 137/270/1 111/529/1 110/448/1
f 137/592/1 138/270/1 112/529/1 111/448/1
f 138/592/1 139/270/1 113/529/1 112/448/1
f 139/592/1 140/270/1 114/529/1 113/448/1
f 143/592/1 144/270/1 118/529/1 117/448/1
f 144/592/1 145/270/1 119/529/1 118/448/1
f 148/592/1 149/270/1 123/529/1 122/448/1
f 150/592/1 151/270/1 125/529/1 124/448/1
f 151/592/1 152/270/1 126/529/1 125/448/1
f 152/592/1 153/270/1 127/529/1 126/448/1
f 153/592/1 154/270/1 128/529/1 127/448/1
f 154/592/1 155/270/1 129/529/1 128/448/1
f 155/592/1 156/270/1 130/529/1 129/448/1
f 158/592/1 159/270/1 133/529/1 132/448/1
f 159/592/1 160/270/1 134/529/1 133/448/1
f 160/592/1 161/270/1 135/529/1 134/448/1
f 161/592/1 162/270/1 136/529/1 135/448/1
f 162/592/1 163/270/1 137/529/1 136/448/1
f 163/592/1 164/270/1 138/529/1 137/448/1
f 164/592/1 165/270/1 139/529/1 138/448/1
f 165/592/1 166/270/1 140/529/1 139/448/1
f 166/592/1 167/270/1 141/529/1 140/448/1
f 169/592/1 170/270/1 144/529/1 143/448/1
f 170/592/1 171/270/1 145/529/1 144/448/1
f 174/592/1 175/270/1 149/529/1 148/448/1
f 176/592/1 177/270/1 151/529/1 150/448/1
f 177/592/1 178/270/1 152/529/1 151/448/1
f 178/592/1 179/270/1 153/529/1 152/448/1
f 179/592/1 180/270/1 154/529/1 153/448/1
f 184/592/1 185/270/1 159/529/1 158/448/1
f 185/592/1 186/270/1 160/529/1 159/448/1
f 186/592/1 187/270/1 161/529/1 160/448/1
f 187/592/1 188/270/1 162/529/1 161/448/1
f 188/592/1 189/270/1 163/529/1 162/448/1
f 189/592/1 190/270/1 164/529/1 163/448/1
f 190/592/1 191/270/1 165/529/1 164/448/1
f 191/592/1 192/270/1 166/529/1 165/448/1
f 192/592/1 193/270/1 167/529/1 166/448/1
f 210/592/1 211/270/1 185/529/1 184/448/1
f 211/592/1 212/270/1 186/529/1 185/448/1
f 212/592/1 213/270/1 187/529/1 186/448/1
f 213/592/1 214/270/1 188/529/1 187/448/1
f 214/592/1 215/270/1 189/529/1 188/448/1
f 215/592/1 216/270/1 190/529/1 189/448/1
f 216/592/1 217/270/1 191/529/1 190/448/1
f 217/592/1 218/270/1 192/529/1 191/448/1
f 218/592/1 219/270/1 193/529/1 192/448/1
f 223/592/1 224/270/1 198/529/1 197/448/1
f 224/592/1 225/270/1 199/529/1 198/448/1
f 225/592/1 226/270/1 200/529/1 199/448/1
f 226/592/1 227/270/1 201/529/1 200/448/1
f 227/592/1 228/270/1 202/529/1 201/448/1
f 228/592/1 229/270/1 203/529/1 202/448/1
f 229/592/1 230/270/1 204/529/1 203/448/1
f 236/592/1 237/270/1 211/529/1 210/448/1
f 237/592/1 238/270/1 212/529/1 211/448/1
f 238/592/1 239/270/1 213/529/1 212/448/1
f 239/592/1 240/270/1 214/529/1 213/448/1
f 240/592/1 241/270/1 215/529/1 214/448/1
f 241/592/1 242/270/1 216/529/1 215/448/1
f 242/592/1 243/270/1 217/529/1 216/448/1
f 243/592/1 244/270/1 218/529/1 217/448/1
f 244/592/1 245/270/1 219/529/1 218/448/1
f 250/592/1 251/270/1 225/529/1 224/448/1
f 251/592/1 252/270/1 226/529/1 225/448/1
f 252/592/1 253/270/1 227/529/1 226/448/1
f 253/592/1 254/270/1 228/529/1 227/448/1
f 262/592/1 263/270/1 237/529/1 236/448/1
f 263/592/1 264/270/1 238/529/1 237/448/1
f 264/592/1 265/270/1 239/529/1 238/448/1
f 265/592/1 266/270/1 240/529/1 239/448/1
f 266/592/1 267/270/1 241/529/1 240/448/1
f 267/592/1 268/270/1 242/529/1 241/448/1
f 268/592/1 269/270/1 243/529/1 242/448/1
f 269/592/1 270/270/1 244/529/1 243/448/1
f 270/592/1 271/270/1 245/529/1 244/448/1
f 273/592/1 274/270/1 248/529/1 247/448/1
f 275/592/1 276/270/1 250/529/1 249/448/1
f 276/592/1 277/270/1 251/529/1 250/448/1
f 291/592/1 292/270/1 266/529/1 265/448/1
f 293/592/1 294/270/1 268/529/1 267/448/1
f 294/592/1 295/270/1 269/529/1 268/448/1
f 295/592/1 296/270/1 270/529/1 269/448/1
f 296/592/1 297/270/1 271/529/1 270/448/1
f 301/592/1 302/270/1 276/529/1 275/448/1
f 302/592/1 303/270/1 277/529/1 276/448/1
f 313/592/1 314/270/1 288/529/1 287/448/1
f 314/592/1 315/270/1 289/529/1 288/448/1
f 317/592/1 318/270/1 292/529/1 291/448/1
f 319/592/1 320/270/1 294/529/1 293/448/1
f 320/592/1 321/270/1 295/529/1 294/448/1
f 321/592/1 322/270/1 296/529/1 295/448/1
f 322/592/1 323/270/1 297/529/1 296/448/1
f 336/592/1 337/270/1 311/529/1 310/448/1
f 337/592/1 338/270/1 312/529/1 311/448/1
f 340/592/1 341/270/1 315/529/1 314/448/1
f 341/592/1 342/270/1 316/529/1 315/448/1
f 349/592/1 350/270/1 324/529/1 323/448/1
f 350/592/1 351/270/1 325/529/1 324/448/1
f 362/592/1 363/270/1 337/529/1 336/448/1
f 363/592/1 364/270/1 338/529/1 337/448/1
f 366/592/1 367/270/1 341/529/1 340/448/1
f 367/592/1 368/270/1 342/529/1 341/448/1
f 375/592/1 376/270/1 350/529/1 349/448/1
f 376/592/1 377/270/1 351/529/1 350/448/1
f 384/592/1 385/270/1 359/529/1 358/448/1
f 385/592/1 386/270/1 360/529/1 359/448/1
f 387/592/1 388/270/1 362/529/1 361/448/1
f 391/592/1 392/270/1 366/529/1 365/448/1
f 392/592/1 393/270/1 367/529/1 366/448/1
f 410/592/1 411/270/1 385/529/1 384/448/1
f 411/592/1 412/270/1 386/529/1 385/448/1
f 412/592/1 413/270/1 387/529/1 386/448/1
f 413/592/1 414/270/1 388/529/1 387/448/1
f 414/592/1 415/270/1 389/529/1 388/448/1
f 417/592/1 418/270/1 392/529/1 391/448/1
f 418/592/1 419/270/1 393/529/1 392/448/1
f 435/592/1 436/270/1 410/529/1 409/448/1
f 460/592/1 461/270/1 435/529/1 434/448/1
f 461/592/1 462/270/1 436/529/1 435/448/1
f 462/592/1 463/270/1 437/529/1 436/448/1
f 466/592/1 467/270/1 441/529/1 440/448/1
f 467/592/1 468/270/1 442/529/1 441/448/1
f 470/592/1 471/270/1 445/529/1 444/448/1
f 471/592/1 472/270/1 446/529/1 445/448/1
f 482/592/1 483/270/1 457/529/1 456/448/1
f 483/592/1 484/270/1 458/529/1 457/448/1
f 490/592/1 491/270/1 465/529/1 464/448/1
f 491/592/1 492/270/1 466/529/1 465/448/1
f 492/592/1 493/270/1 467/529/1 466/448/1
f 493/592/1 494/270/1 468/529/1 467/448/1
f 495/592/1 496/270/1 470/529/1 469/448/1
f 496/592/1 497/270/1 471/529/1 470/448/1
f 497/592/1 498/270/1 472/529/1 471/448/1
f 508/592/1 509/270/1 483/529/1 482/448/1
f 509/592/1 510/270/1 484/529/1 483/448/1
f 510/592/1 511/270/1 485/529/1 484/448/1
f 511/592/1 512/270/1 486/529/1 485/448/1
f 516/592/1 517/270/1 491/529/1 490/448/1
f 517/592/1 518/270/1 492/529/1 491/448/1
f 532/592/1 533/270/1 507/529/1 506/448/1
f 533/592/1 534/270/1 508/529/1 507/448/1
f 553/592/1 554/270/1 528/529/1 527/448/1
f 554/592/1 555/270/1 529/529/1 528/448/1
f 567/592/1 568/270/1 542/529/1 541/448/1
f 568/592/1 569/270/1 543/529/1 542/448/1
f 576/592/1 577/270/1 551/529/1 550/448/1
f 577/592/1 578/270/1 552/529/1 551/448/1
f 578/592/1 579/270/1 553/529/1 552/448/1
f 579/592/1 580/270/1 554/529/1 553/448/1
f 580/592/1 581/270/1 555/529/1 554/448/1
f 582/592/1 583/270/1 557/529/1 556/448/1
f 590/592/1 591/270/1 565/529/1 564/448/1
f 591/592/1 592/270/1 566/529/1 565/448/1
f 592/592/1 593/270/1 567/529/1 566/448/1
f 593/592/1 594/270/1 568/529/1 567/448/1
f 594/592/1 595/270/1 569/529/1 568/448/1
f 602/592/1 603/270/1 577/529/1 576/448/1
f 603/592/1 604/270/1 578/529/1 577/448/1
f 607/592/1 608/270/1 582/529/1 581/448/1
f 608/592/1 609/270/1 583/529/1 582/448/1
f 609/592/1 610/270/1 584/529/1 583/448/1
f 611/592/1 612/270/1 586/529/1 585/448/1
f 612/592/1 613/270/1 587/529/1 586/448/1
f 616/592/1 617/270/1 591/529/1 590/448/1
f 617/592/1 618/270/1 592/529/1 591/448/1
f 625/592/1 626/270/1 600/529/1 599/448/1
f 626/592/1 627/270/1 601/529/1 600/448/1
f 627/592/1 628/270/1 602/529/1 601/448/1
f 628/592/1 629/270/1 603/529/1 602/448/1
f 629/592/1 630/270/1 604/529/1 603/448/1
f 642/592/1 643/270/1 617/529/1 616/448/1
f 643/592/1 644/270/1 618/529/1 617/448/1
f 647/592/1 648/270/1 622/529/1 621/448/1
f 648/592/1 649/270/1 623/529/1 622/448/1
f 649/592/1 650/270/1 624/529/1 623/448/1

