﻿# Wavefront OBJ file automatically generated by Tiled2Unity

# Vertices (Count = 400)
v -32 -64 0
v -64 -64 0
v -64 -32 0
v -32 -32 0
v -96 -64 0
v -96 -32 0
v -128 -64 0
v -128 -32 0
v -160 -64 0
v -160 -32 0
v -192 -64 0
v -192 -32 0
v -224 -64 0
v -224 -32 0
v -256 -64 0
v -256 -32 0
v -288 -64 0
v -288 -32 0
v -320 -64 0
v -320 -32 0
v -352 -64 0
v -352 -32 0
v -384 -64 0
v -384 -32 0
v -416 -64 0
v -416 -32 0
v -448 -64 0
v -448 -32 0
v -480 -64 0
v -480 -32 0
v -512 -64 0
v -512 -32 0
v -544 -64 0
v -544 -32 0
v -576 -64 0
v -576 -32 0
v -32 -96 0
v -64 -96 0
v -96 -96 0
v -128 -96 0
v -160 -96 0
v -192 -96 0
v -224 -96 0
v -256 -96 0
v -288 -96 0
v -320 -96 0
v -352 -96 0
v -384 -96 0
v -416 -96 0
v -448 -96 0
v -480 -96 0
v -512 -96 0
v -544 -96 0
v -576 -96 0
v -32 -128 0
v -64 -128 0
v -96 -128 0
v -128 -128 0
v -160 -128 0
v -192 -128 0
v -224 -128 0
v -256 -128 0
v -288 -128 0
v -320 -128 0
v -352 -128 0
v -384 -128 0
v -416 -128 0
v -448 -128 0
v -480 -128 0
v -512 -128 0
v -544 -128 0
v -576 -128 0
v -32 -160 0
v -64 -160 0
v -96 -160 0
v -128 -160 0
v -160 -160 0
v -192 -160 0
v -224 -160 0
v -256 -160 0
v -288 -160 0
v -320 -160 0
v -352 -160 0
v -384 -160 0
v -416 -160 0
v -448 -160 0
v -480 -160 0
v -512 -160 0
v -544 -160 0
v -576 -160 0
v -32 -192 0
v -64 -192 0
v -96 -192 0
v -128 -192 0
v -160 -192 0
v -192 -192 0
v -224 -192 0
v -256 -192 0
v -288 -192 0
v -320 -192 0
v -352 -192 0
v -384 -192 0
v -416 -192 0
v -448 -192 0
v -480 -192 0
v -512 -192 0
v -544 -192 0
v -576 -192 0
v -32 -224 0
v -64 -224 0
v -96 -224 0
v -128 -224 0
v -160 -224 0
v -192 -224 0
v -224 -224 0
v -256 -224 0
v -288 -224 0
v -320 -224 0
v -352 -224 0
v -384 -224 0
v -416 -224 0
v -448 -224 0
v -480 -224 0
v -512 -224 0
v -544 -224 0
v -576 -224 0
v -32 -256 0
v -64 -256 0
v -96 -256 0
v -128 -256 0
v -160 -256 0
v -192 -256 0
v -224 -256 0
v -256 -256 0
v -288 -256 0
v -320 -256 0
v -352 -256 0
v -384 -256 0
v -416 -256 0
v -448 -256 0
v -480 -256 0
v -512 -256 0
v -544 -256 0
v -576 -256 0
v -32 -288 0
v -64 -288 0
v -96 -288 0
v -128 -288 0
v -160 -288 0
v -192 -288 0
v -224 -288 0
v -256 -288 0
v -288 -288 0
v -320 -288 0
v -352 -288 0
v -384 -288 0
v -416 -288 0
v -448 -288 0
v -480 -288 0
v -512 -288 0
v -544 -288 0
v -576 -288 0
v -32 -320 0
v -64 -320 0
v -96 -320 0
v -128 -320 0
v -160 -320 0
v -192 -320 0
v -224 -320 0
v -256 -320 0
v -288 -320 0
v -320 -320 0
v -352 -320 0
v -384 -320 0
v -416 -320 0
v -448 -320 0
v -480 -320 0
v -512 -320 0
v -544 -320 0
v -576 -320 0
v -32 -352 0
v -64 -352 0
v -96 -352 0
v -128 -352 0
v -160 -352 0
v -192 -352 0
v -224 -352 0
v -256 -352 0
v -288 -352 0
v -320 -352 0
v -352 -352 0
v -384 -352 0
v -416 -352 0
v -448 -352 0
v -480 -352 0
v -512 -352 0
v -544 -352 0
v -576 -352 0
v -32 -384 0
v -64 -384 0
v -96 -384 0
v -128 -384 0
v -160 -384 0
v -192 -384 0
v -224 -384 0
v -256 -384 0
v -288 -384 0
v -320 -384 0
v -352 -384 0
v -384 -384 0
v -416 -384 0
v -448 -384 0
v -480 -384 0
v -512 -384 0
v -544 -384 0
v -576 -384 0
v -32 -416 0
v -64 -416 0
v -96 -416 0
v -128 -416 0
v -160 -416 0
v -192 -416 0
v -224 -416 0
v -256 -416 0
v -288 -416 0
v -320 -416 0
v -352 -416 0
v -384 -416 0
v -416 -416 0
v -448 -416 0
v -480 -416 0
v -512 -416 0
v -544 -416 0
v -576 -416 0
v -32 -448 0
v -64 -448 0
v -96 -448 0
v -128 -448 0
v -160 -448 0
v -192 -448 0
v -224 -448 0
v -256 -448 0
v -288 -448 0
v -320 -448 0
v -352 -448 0
v -384 -448 0
v -416 -448 0
v -448 -448 0
v -480 -448 0
v -512 -448 0
v -544 -448 0
v -576 -448 0
v -192 -480 0
v -224 -480 0
v -256 -480 0
v -288 -480 0
v -320 -480 0
v -352 -480 0
v -384 -480 0
v -416 -480 0
v -192 -512 0
v -224 -512 0
v -256 -512 0
v -288 -512 0
v -320 -512 0
v -352 -512 0
v -384 -512 0
v -416 -512 0
v -192 -544 0
v -224 -544 0
v -256 -544 0
v -288 -544 0
v -320 -544 0
v -352 -544 0
v -384 -544 0
v -416 -544 0
v -192 -576 0
v -224 -576 0
v -256 -576 0
v -288 -576 0
v -320 -576 0
v -352 -576 0
v -384 -576 0
v -416 -576 0
v 0 -32 0
v -32 0 0
v 0 0 0
v -64 0 0
v -96 0 0
v -128 0 0
v -160 0 0
v -192 0 0
v -224 0 0
v -256 0 0
v -288 0 0
v -320 0 0
v -352 0 0
v -384 0 0
v -416 0 0
v -448 0 0
v -480 0 0
v -512 0 0
v -544 0 0
v -576 0 0
v -608 -32 0
v -608 0 0
v 0 -64 0
v -608 -64 0
v 0 -96 0
v -608 -96 0
v 0 -128 0
v -608 -128 0
v 0 -160 0
v -608 -160 0
v 0 -192 0
v -608 -192 0
v 0 -224 0
v -608 -224 0
v 0 -256 0
v -608 -256 0
v 0 -288 0
v -608 -288 0
v 0 -320 0
v -608 -320 0
v 0 -352 0
v -608 -352 0
v 0 -384 0
v -608 -384 0
v 0 -416 0
v -608 -416 0
v 0 -448 0
v -608 -448 0
v 0 -480 0
v -32 -480 0
v -64 -480 0
v -96 -480 0
v -128 -480 0
v -160 -480 0
v -448 -480 0
v -480 -480 0
v -512 -480 0
v -544 -480 0
v -576 -480 0
v -608 -480 0
v 0 -512 0
v -32 -512 0
v -64 -512 0
v -96 -512 0
v -128 -512 0
v -160 -512 0
v -448 -512 0
v -480 -512 0
v -512 -512 0
v -544 -512 0
v -576 -512 0
v -608 -512 0
v 0 -544 0
v -32 -544 0
v -64 -544 0
v -96 -544 0
v -128 -544 0
v -160 -544 0
v -448 -544 0
v -480 -544 0
v -512 -544 0
v -544 -544 0
v -576 -544 0
v -608 -544 0
v 0 -576 0
v -32 -576 0
v -64 -576 0
v -96 -576 0
v -128 -576 0
v -160 -576 0
v -448 -576 0
v -480 -576 0
v -512 -576 0
v -544 -576 0
v -576 -576 0
v -608 -576 0
v 0 -608 0
v -32 -608 0
v -64 -608 0
v -96 -608 0
v -128 -608 0
v -160 -608 0
v -192 -608 0
v -224 -608 0
v -256 -608 0
v -288 -608 0
v -320 -608 0
v -352 -608 0
v -384 -608 0
v -416 -608 0
v -448 -608 0
v -480 -608 0
v -512 -608 0
v -544 -608 0
v -576 -608 0
v -608 -608 0

# Texture cooridinates (Count = 336)
vt 0.0001220703 0.9167888
vt 0.06237793 0.9167888
vt 0.06237793 0.9998779
vt 0.0001220703 0.9998779
vt 0.0001220703 0.5001221
vt 0.06237793 0.5001221
vt 0.06237793 0.5832113
vt 0.0001220703 0.5832113
vt 0.06262207 0.5001221
vt 0.1248779 0.5001221
vt 0.1248779 0.5832113
vt 0.06262207 0.5832113
vt 0.0001220703 0.8334554
vt 0.06237793 0.8334554
vt 0.06237793 0.9165446
vt 0.0001220703 0.9165446
vt 0.0001220703 0.7501221
vt 0.06237793 0.7501221
vt 0.06237793 0.8332112
vt 0.0001220703 0.8332112
vt 0.06262207 0.9167888
vt 0.1248779 0.9167888
vt 0.1248779 0.9998779
vt 0.06262207 0.9998779
vt 0.06262207 0.8334554
vt 0.1248779 0.8334554
vt 0.1248779 0.9165446
vt 0.06262207 0.9165446
vt 0.06262207 0.7501221
vt 0.1248779 0.7501221
vt 0.1248779 0.8332112
vt 0.06262207 0.8332112
vt 0.04178874 0.5001221
vt 0.08321127 0.5001221
vt 0.08321127 0.5623779
vt 0.04178874 0.5623779
vt 0.1251221 0.5001221
vt 0.1665446 0.5001221
vt 0.1665446 0.5623779
vt 0.1251221 0.5623779
vt 0.0415446 0.5001221
vt 0.0415446 0.5623779
vt 0.0001220703 0.5623779
vt 0.1667887 0.5626221
vt 0.2082113 0.5626221
vt 0.2082113 0.6248779
vt 0.1667887 0.6248779
vt 0.08345541 0.5626221
vt 0.1248779 0.5626221
vt 0.1248779 0.6248779
vt 0.08345541 0.6248779
vt 0.04178874 0.9376221
vt 0.08321127 0.9376221
vt 0.08321127 0.9998779
vt 0.04178874 0.9998779
vt 0.08345541 0.9376221
vt 0.1248779 0.9376221
vt 0.08345541 0.9998779
vt 0.1251221 0.9376221
vt 0.1665446 0.9376221
vt 0.1665446 0.9998779
vt 0.1251221 0.9998779
vt 0.04178874 0.8751221
vt 0.08321127 0.8751221
vt 0.08321127 0.9373779
vt 0.04178874 0.9373779
vt 0.08345541 0.8751221
vt 0.1248779 0.8751221
vt 0.1248779 0.9373779
vt 0.08345541 0.9373779
vt 0.1251221 0.8751221
vt 0.1665446 0.8751221
vt 0.1665446 0.9373779
vt 0.1251221 0.9373779
vt 0.04178874 0.5626221
vt 0.08321127 0.5626221
vt 0.08321127 0.6248779
vt 0.04178874 0.6248779
vt 0.1251221 0.6251221
vt 0.1665446 0.6251221
vt 0.1665446 0.6873779
vt 0.1251221 0.6873779
vt 0.1667887 0.6251221
vt 0.2082113 0.6251221
vt 0.2082113 0.6873779
vt 0.1667887 0.6873779
vt 0.08345541 0.6251221
vt 0.1248779 0.6251221
vt 0.1248779 0.6873779
vt 0.08345541 0.6873779
vt 0.0001220703 0.5626221
vt 0.0415446 0.5626221
vt 0.0415446 0.6248779
vt 0.0001220703 0.6248779
vt 0.1251221 0.5626221
vt 0.1665446 0.5626221
vt 0.1665446 0.6248779
vt 0.1251221 0.6248779
vt 0.04178874 0.8126221
vt 0.08321127 0.8126221
vt 0.08321127 0.8748779
vt 0.04178874 0.8748779
vt 0.08345541 0.8126221
vt 0.1248779 0.8126221
vt 0.1248779 0.8748779
vt 0.08345541 0.8748779
vt 0.1251221 0.8126221
vt 0.1665446 0.8126221
vt 0.1665446 0.8748779
vt 0.1251221 0.8748779
vt 0.2917887 0.6251221
vt 0.3332113 0.6251221
vt 0.3332113 0.6873779
vt 0.2917887 0.6873779
vt 0.2917887 0.5626221
vt 0.3332113 0.5626221
vt 0.3332113 0.6248779
vt 0.2917887 0.6248779
vt 0.6876221 0.07155067
vt 0.7498779 0.07155067
vt 0.7498779 0.1427351
vt 0.6876221 0.1427351
vt 0.6876221 0.0001220703
vt 0.7498779 0.0001220703
vt 0.7498779 0.07130653
vt 0.6876221 0.07130653
vt 0.5626221 0.5001221
vt 0.6248779 0.5001221
vt 0.6248779 0.5713065
vt 0.5626221 0.5713065
vt 0.4376221 0.5001221
vt 0.4998779 0.5001221
vt 0.4998779 0.5713065
vt 0.4376221 0.5713065
vt 0.6251221 0.5001221
vt 0.6873779 0.5001221
vt 0.6873779 0.5713065
vt 0.6251221 0.5713065
vt 0.5626221 0.4286935
vt 0.6248779 0.4286935
vt 0.6248779 0.4998779
vt 0.5626221 0.4998779
vt 0.6251221 0.4286935
vt 0.6873779 0.4286935
vt 0.6873779 0.4998779
vt 0.6251221 0.4998779
vt 0.5834554 0.6251221
vt 0.6248779 0.6251221
vt 0.6248779 0.6873779
vt 0.5834554 0.6873779
vt 0.6251221 0.6251221
vt 0.6665446 0.6251221
vt 0.6665446 0.6873779
vt 0.6251221 0.6873779
vt 0.6667888 0.6251221
vt 0.7082112 0.6251221
vt 0.7082112 0.6873779
vt 0.6667888 0.6873779
vt 0.5834554 0.5626221
vt 0.6248779 0.5626221
vt 0.6248779 0.6248779
vt 0.5834554 0.6248779
vt 0.6251221 0.5626221
vt 0.6665446 0.5626221
vt 0.6665446 0.6248779
vt 0.6251221 0.6248779
vt 0.6667888 0.5626221
vt 0.7082112 0.5626221
vt 0.7082112 0.6248779
vt 0.6667888 0.6248779
vt 0.08345541 0.6876221
vt 0.1248779 0.6876221
vt 0.1248779 0.7498779
vt 0.08345541 0.7498779
vt 0.5834554 0.5001221
vt 0.6248779 0.5623779
vt 0.5834554 0.5623779
vt 0.6665446 0.5001221
vt 0.6665446 0.5623779
vt 0.6251221 0.5623779
vt 0.6667888 0.5001221
vt 0.7082112 0.5001221
vt 0.7082112 0.5623779
vt 0.6667888 0.5623779
vt 0.4376221 0.9286935
vt 0.4998779 0.9286935
vt 0.4998779 0.9998779
vt 0.4376221 0.9998779
vt 0.1876221 0.6429792
vt 0.2498779 0.6429792
vt 0.2498779 0.7141637
vt 0.1876221 0.7141637
vt 0.1876221 0.9286935
vt 0.2498779 0.9286935
vt 0.2498779 0.9998779
vt 0.1876221 0.9998779
vt 0.3126221 0.9286935
vt 0.3748779 0.9286935
vt 0.3748779 0.9998779
vt 0.3126221 0.9998779
vt 0.1876221 0.8572649
vt 0.2498779 0.8572649
vt 0.2498779 0.9284493
vt 0.1876221 0.9284493
vt 0.3126221 0.8572649
vt 0.3748779 0.8572649
vt 0.3748779 0.9284493
vt 0.3126221 0.9284493
vt 0.2501221 0.5715506
vt 0.3123779 0.5715506
vt 0.3123779 0.6427351
vt 0.2501221 0.6427351
vt 0.3126221 0.5715506
vt 0.3748779 0.5715506
vt 0.3748779 0.6427351
vt 0.3126221 0.6427351
vt 0.2501221 0.5001221
vt 0.3123779 0.5001221
vt 0.3123779 0.5713065
vt 0.2501221 0.5713065
vt 0.3126221 0.5001221
vt 0.3748779 0.5001221
vt 0.3748779 0.5713065
vt 0.3126221 0.5713065
vt 0.2501221 0.4286935
vt 0.3123779 0.4286935
vt 0.3123779 0.4998779
vt 0.2501221 0.4998779
vt 0.3126221 0.4286935
vt 0.3748779 0.4286935
vt 0.3748779 0.4998779
vt 0.3126221 0.4998779
vt 0.4167887 0.6251221
vt 0.4582113 0.6251221
vt 0.4582113 0.6873779
vt 0.4167887 0.6873779
vt 0.4584554 0.6251221
vt 0.4998779 0.6251221
vt 0.4998779 0.6873779
vt 0.4584554 0.6873779
vt 0.4167887 0.5626221
vt 0.4582113 0.5626221
vt 0.4582113 0.6248779
vt 0.4167887 0.6248779
vt 0.4584554 0.5626221
vt 0.4998779 0.5626221
vt 0.4998779 0.6248779
vt 0.4584554 0.6248779
vt 0.5001221 0.5626221
vt 0.5415446 0.5626221
vt 0.5415446 0.6248779
vt 0.5001221 0.6248779
vt 0.5417888 0.6251221
vt 0.5832112 0.6251221
vt 0.5832112 0.6873779
vt 0.5417888 0.6873779
vt 0.2084554 0.5001221
vt 0.2498779 0.5001221
vt 0.2498779 0.5623779
vt 0.2084554 0.5623779
vt 0.2084554 0.5626221
vt 0.2498779 0.5626221
vt 0.2498779 0.6248779
vt 0.2084554 0.6248779
vt 0.2917887 0.8126221
vt 0.3332113 0.8126221
vt 0.3332113 0.8748779
vt 0.2917887 0.8748779
vt 0.0001220703 0.6876221
vt 0.0415446 0.6876221
vt 0.0415446 0.7498779
vt 0.0001220703 0.7498779
vt 0.04178874 0.6876221
vt 0.08321127 0.6876221
vt 0.08321127 0.7498779
vt 0.04178874 0.7498779
vt 0.2917887 0.7501221
vt 0.3332113 0.7501221
vt 0.3332113 0.8123779
vt 0.2917887 0.8123779
vt 0.0415446 0.7501221
vt 0.0415446 0.8123779
vt 0.0001220703 0.8123779
vt 0.04178874 0.7501221
vt 0.08321127 0.7501221
vt 0.08321127 0.8123779
vt 0.04178874 0.8123779
vt 0.0001220703 0.5715506
vt 0.06237793 0.5715506
vt 0.06237793 0.6427351
vt 0.0001220703 0.6427351
vt 0.06262207 0.5715506
vt 0.1248779 0.5715506
vt 0.1248779 0.6427351
vt 0.06262207 0.6427351
vt 0.5626221 0.3572649
vt 0.6248779 0.3572649
vt 0.6248779 0.4284493
vt 0.5626221 0.4284493
vt 0.06237793 0.5713065
vt 0.0001220703 0.5713065
vt 0.1248779 0.5713065
vt 0.06262207 0.5713065
vt 0.4376221 0.3572649
vt 0.4998779 0.3572649
vt 0.4998779 0.4284493
vt 0.4376221 0.4284493
vt 0.0001220703 0.4286935
vt 0.06237793 0.4286935
vt 0.06237793 0.4998779
vt 0.0001220703 0.4998779
vt 0.06262207 0.4286935
vt 0.1248779 0.4286935
vt 0.1248779 0.4998779
vt 0.06262207 0.4998779
vt 0.5001221 0.5715506
vt 0.5623779 0.5715506
vt 0.5623779 0.6427351
vt 0.5001221 0.6427351
vt 0.6876221 0.5001221
vt 0.7498779 0.5001221
vt 0.7498779 0.5713065
vt 0.6876221 0.5713065
vt 0.5626221 0.5715506
vt 0.6248779 0.5715506
vt 0.6248779 0.6427351
vt 0.5626221 0.6427351
vt 0.4376221 0.7858363
vt 0.4998779 0.7858363
vt 0.4998779 0.8570208
vt 0.4376221 0.8570208
vt 0.3126221 0.6429792
vt 0.3748779 0.6429792
vt 0.3748779 0.7141637
vt 0.3126221 0.7141637
vt 0.2498779 0.7501221

# Normal
vn 0 0 -1

# Groups (Count = 7)

g mesh_0001
f 1/1/1 2/2/1 3/3/1 4/4/1
f 2/1/1 5/2/1 6/3/1 3/4/1
f 5/1/1 7/2/1 8/3/1 6/4/1
f 7/1/1 9/2/1 10/3/1 8/4/1
f 9/1/1 11/2/1 12/3/1 10/4/1
f 11/1/1 13/2/1 14/3/1 12/4/1
f 13/1/1 15/2/1 16/3/1 14/4/1
f 15/1/1 17/2/1 18/3/1 16/4/1
f 17/1/1 19/2/1 20/3/1 18/4/1
f 19/1/1 21/2/1 22/3/1 20/4/1
f 21/5/1 23/6/1 24/7/1 22/8/1
f 23/5/1 25/6/1 26/7/1 24/8/1
f 25/9/1 27/10/1 28/11/1 26/12/1
f 27/9/1 29/10/1 30/11/1 28/12/1
f 29/9/1 31/10/1 32/11/1 30/12/1
f 31/9/1 33/10/1 34/11/1 32/12/1
f 33/9/1 35/10/1 36/11/1 34/12/1
f 37/13/1 38/14/1 2/15/1 1/16/1
f 38/13/1 39/14/1 5/15/1 2/16/1
f 39/13/1 40/14/1 7/15/1 5/16/1
f 40/13/1 41/14/1 9/15/1 7/16/1
f 41/13/1 42/14/1 11/15/1 9/16/1
f 42/13/1 43/14/1 13/15/1 11/16/1
f 43/13/1 44/14/1 15/15/1 13/16/1
f 44/13/1 45/14/1 17/15/1 15/16/1
f 45/13/1 46/14/1 19/15/1 17/16/1
f 46/13/1 47/14/1 21/15/1 19/16/1
f 47/5/1 48/6/1 23/7/1 21/8/1
f 48/5/1 49/6/1 25/7/1 23/8/1
f 49/9/1 50/10/1 27/11/1 25/12/1
f 50/5/1 51/6/1 29/7/1 27/8/1
f 51/9/1 52/10/1 31/11/1 29/12/1
f 52/5/1 53/6/1 33/7/1 31/8/1
f 53/9/1 54/10/1 35/11/1 33/12/1
f 55/17/1 56/18/1 38/19/1 37/20/1
f 56/17/1 57/18/1 39/19/1 38/20/1
f 57/1/1 58/2/1 40/3/1 39/4/1
f 58/1/1 59/2/1 41/3/1 40/4/1
f 59/21/1 60/22/1 42/23/1 41/24/1
f 60/17/1 61/18/1 43/19/1 42/20/1
f 61/17/1 62/18/1 44/19/1 43/20/1
f 62/17/1 63/18/1 45/19/1 44/20/1
f 63/1/1 64/2/1 46/3/1 45/4/1
f 64/21/1 65/22/1 47/23/1 46/24/1
f 65/5/1 66/6/1 48/7/1 47/8/1
f 66/5/1 67/6/1 49/7/1 48/8/1
f 67/5/1 68/6/1 50/7/1 49/8/1
f 68/5/1 69/6/1 51/7/1 50/8/1
f 69/9/1 70/10/1 52/11/1 51/12/1
f 70/5/1 71/6/1 53/7/1 52/8/1
f 71/9/1 72/10/1 54/11/1 53/12/1
f 73/1/1 74/2/1 56/3/1 55/4/1
f 74/21/1 75/22/1 57/23/1 56/24/1
f 75/13/1 76/14/1 58/15/1 57/16/1
f 76/1/1 77/2/1 59/3/1 58/4/1
f 77/1/1 78/2/1 60/3/1 59/4/1
f 78/1/1 79/2/1 61/3/1 60/4/1
f 79/1/1 80/2/1 62/3/1 61/4/1
f 80/1/1 81/2/1 63/3/1 62/4/1
f 81/1/1 82/2/1 64/3/1 63/4/1
f 82/21/1 83/22/1 65/23/1 64/24/1
f 83/5/1 84/6/1 66/7/1 65/8/1
f 84/9/1 85/10/1 67/11/1 66/12/1
f 85/5/1 86/6/1 68/7/1 67/8/1
f 86/5/1 87/6/1 69/7/1 68/8/1
f 87/9/1 88/10/1 70/11/1 69/12/1
f 88/9/1 89/10/1 71/11/1 70/12/1
f 89/9/1 90/10/1 72/11/1 71/12/1
f 91/13/1 92/14/1 74/15/1 73/16/1
f 92/25/1 93/26/1 75/27/1 74/28/1
f 93/17/1 94/18/1 76/19/1 75/20/1
f 94/13/1 95/14/1 77/15/1 76/16/1
f 95/13/1 96/14/1 78/15/1 77/16/1
f 96/1/1 97/2/1 79/3/1 78/4/1
f 97/1/1 98/2/1 80/3/1 79/4/1
f 98/1/1 99/2/1 81/3/1 80/4/1
f 99/21/1 100/22/1 82/23/1 81/24/1
f 100/5/1 101/6/1 83/7/1 82/8/1
f 101/9/1 102/10/1 84/11/1 83/12/1
f 102/9/1 103/10/1 85/11/1 84/12/1
f 103/5/1 104/6/1 86/7/1 85/8/1
f 104/5/1 105/6/1 87/7/1 86/8/1
f 105/5/1 106/6/1 88/7/1 87/8/1
f 106/9/1 107/10/1 89/11/1 88/12/1
f 107/9/1 108/10/1 90/11/1 89/12/1
f 109/17/1 110/18/1 92/19/1 91/20/1
f 110/29/1 111/30/1 93/31/1 92/32/1
f 111/17/1 112/18/1 94/19/1 93/20/1
f 112/17/1 113/18/1 95/19/1 94/20/1
f 113/1/1 114/2/1 96/3/1 95/4/1
f 114/21/1 115/22/1 97/23/1 96/24/1
f 115/13/1 116/14/1 98/15/1 97/16/1
f 116/1/1 117/2/1 99/3/1 98/4/1
f 117/21/1 118/22/1 100/23/1 99/24/1
f 118/5/1 119/6/1 101/7/1 100/8/1
f 119/5/1 120/6/1 102/7/1 101/8/1
f 120/5/1 121/6/1 103/7/1 102/8/1
f 121/5/1 122/6/1 104/7/1 103/8/1
f 122/5/1 123/6/1 105/7/1 104/8/1
f 123/5/1 124/6/1 106/7/1 105/8/1
f 124/5/1 125/6/1 107/7/1 106/8/1
f 125/9/1 126/10/1 108/11/1 107/12/1
f 127/1/1 128/2/1 110/3/1 109/4/1
f 128/1/1 129/2/1 111/3/1 110/4/1
f 129/17/1 130/18/1 112/19/1 111/20/1
f 130/1/1 131/2/1 113/3/1 112/4/1
f 131/21/1 132/22/1 114/23/1 113/24/1
f 132/21/1 133/22/1 115/23/1 114/24/1
f 133/17/1 134/18/1 116/19/1 115/20/1
f 134/1/1 135/2/1 117/3/1 116/4/1
f 135/1/1 136/2/1 118/3/1 117/4/1
f 136/13/1 137/14/1 119/15/1 118/16/1
f 137/1/1 138/2/1 120/3/1 119/4/1
f 138/13/1 139/14/1 121/15/1 120/16/1
f 139/13/1 140/14/1 122/15/1 121/16/1
f 140/17/1 141/18/1 123/19/1 122/20/1
f 141/17/1 142/18/1 124/19/1 123/20/1
f 142/29/1 143/30/1 125/31/1 124/32/1
f 143/29/1 144/30/1 126/31/1 125/32/1
f 145/13/1 146/14/1 128/15/1 127/16/1
f 146/13/1 147/14/1 129/15/1 128/16/1
f 147/17/1 148/18/1 130/19/1 129/20/1
f 148/1/1 149/2/1 131/3/1 130/4/1
f 149/21/1 150/22/1 132/23/1 131/24/1
f 150/25/1 151/26/1 133/27/1 132/28/1
f 151/1/1 152/2/1 134/3/1 133/4/1
f 152/1/1 153/2/1 135/3/1 134/4/1
f 153/13/1 154/14/1 136/15/1 135/16/1
f 154/17/1 155/18/1 137/19/1 136/20/1
f 155/1/1 156/2/1 138/3/1 137/4/1
f 156/1/1 157/2/1 139/3/1 138/4/1
f 157/17/1 158/18/1 140/19/1 139/20/1
f 158/17/1 159/18/1 141/19/1 140/20/1
f 159/29/1 160/30/1 142/31/1 141/32/1
f 160/17/1 161/18/1 143/19/1 142/20/1
f 161/29/1 162/30/1 144/31/1 143/32/1
f 163/1/1 164/2/1 146/3/1 145/4/1
f 164/17/1 165/18/1 147/19/1 146/20/1
f 165/17/1 166/18/1 148/19/1 147/20/1
f 166/13/1 167/14/1 149/15/1 148/16/1
f 167/1/1 168/2/1 150/3/1 149/4/1
f 168/1/1 169/2/1 151/3/1 150/4/1
f 169/1/1 170/2/1 152/3/1 151/4/1
f 170/13/1 171/14/1 153/15/1 152/16/1
f 171/17/1 172/18/1 154/19/1 153/20/1
f 172/1/1 173/2/1 155/3/1 154/4/1
f 173/13/1 174/14/1 156/15/1 155/16/1
f 174/13/1 175/14/1 157/15/1 156/16/1
f 175/17/1 176/18/1 158/19/1 157/20/1
f 176/29/1 177/30/1 159/31/1 158/32/1
f 177/1/1 178/2/1 160/3/1 159/4/1
f 178/17/1 179/18/1 161/19/1 160/20/1
f 179/29/1 180/30/1 162/31/1 161/32/1
f 181/13/1 182/14/1 164/15/1 163/16/1
f 182/17/1 183/18/1 165/19/1 164/20/1
f 183/29/1 184/30/1 166/31/1 165/32/1
f 184/17/1 185/18/1 167/19/1 166/20/1
f 185/1/1 186/2/1 168/3/1 167/4/1
f 186/13/1 187/14/1 169/15/1 168/16/1
f 187/13/1 188/14/1 170/15/1 169/16/1
f 188/17/1 189/18/1 171/19/1 170/20/1
f 189/17/1 190/18/1 172/19/1 171/20/1
f 190/1/1 191/2/1 173/3/1 172/4/1
f 191/17/1 192/18/1 174/19/1 173/20/1
f 192/17/1 193/18/1 175/19/1 174/20/1
f 193/29/1 194/30/1 176/31/1 175/32/1
f 194/29/1 195/30/1 177/31/1 176/32/1
f 195/13/1 196/14/1 178/15/1 177/16/1
f 196/17/1 197/18/1 179/19/1 178/20/1
f 197/29/1 198/30/1 180/31/1 179/32/1
f 199/1/1 200/2/1 182/3/1 181/4/1
f 200/21/1 201/22/1 183/23/1 182/24/1
f 201/17/1 202/18/1 184/19/1 183/20/1
f 202/29/1 203/30/1 185/31/1 184/32/1
f 203/13/1 204/14/1 186/15/1 185/16/1
f 204/17/1 205/18/1 187/19/1 186/20/1
f 205/17/1 206/18/1 188/19/1 187/20/1
f 206/17/1 207/18/1 189/19/1 188/20/1
f 207/29/1 208/30/1 190/31/1 189/32/1
f 208/13/1 209/14/1 191/15/1 190/16/1
f 209/17/1 210/18/1 192/19/1 191/20/1
f 210/29/1 211/30/1 193/31/1 192/32/1
f 211/17/1 212/18/1 194/19/1 193/20/1
f 212/29/1 213/30/1 195/31/1 194/32/1
f 213/17/1 214/18/1 196/19/1 195/20/1
f 214/17/1 215/18/1 197/19/1 196/20/1
f 215/29/1 216/30/1 198/31/1 197/32/1
f 217/13/1 218/14/1 200/15/1 199/16/1
f 218/25/1 219/26/1 201/27/1 200/28/1
f 219/13/1 220/14/1 202/15/1 201/16/1
f 220/17/1 221/18/1 203/19/1 202/20/1
f 221/17/1 222/18/1 204/19/1 203/20/1
f 222/17/1 223/18/1 205/19/1 204/20/1
f 223/17/1 224/18/1 206/19/1 205/20/1
f 224/29/1 225/30/1 207/31/1 206/32/1
f 225/1/1 226/2/1 208/3/1 207/4/1
f 226/17/1 227/18/1 209/19/1 208/20/1
f 227/29/1 228/30/1 210/31/1 209/32/1
f 228/21/1 229/22/1 211/23/1 210/24/1
f 229/13/1 230/14/1 212/15/1 211/16/1
f 230/17/1 231/18/1 213/19/1 212/20/1
f 231/17/1 232/18/1 214/19/1 213/20/1
f 232/29/1 233/30/1 215/31/1 214/32/1
f 233/25/1 234/26/1 216/27/1 215/28/1
f 235/17/1 236/18/1 218/19/1 217/20/1
f 236/29/1 237/30/1 219/31/1 218/32/1
f 237/17/1 238/18/1 220/19/1 219/20/1
f 238/17/1 239/18/1 221/19/1 220/20/1
f 239/29/1 240/30/1 222/31/1 221/32/1
f 240/1/1 241/2/1 223/3/1 222/4/1
f 241/21/1 242/22/1 224/23/1 223/24/1
f 242/13/1 243/14/1 225/15/1 224/16/1
f 243/13/1 244/14/1 226/15/1 225/16/1
f 244/17/1 245/18/1 227/19/1 226/20/1
f 245/29/1 246/30/1 228/31/1 227/32/1
f 246/25/1 247/26/1 229/27/1 228/28/1
f 247/17/1 248/18/1 230/19/1 229/20/1
f 248/17/1 249/18/1 231/19/1 230/20/1
f 249/29/1 250/30/1 232/31/1 231/32/1
f 250/29/1 251/30/1 233/31/1 232/32/1
f 251/29/1 252/30/1 234/31/1 233/32/1
f 253/13/1 254/14/1 241/15/1 240/16/1
f 254/25/1 255/26/1 242/27/1 241/28/1
f 255/17/1 256/18/1 243/19/1 242/20/1
f 256/17/1 257/18/1 244/19/1 243/20/1
f 257/17/1 258/18/1 245/19/1 244/20/1
f 258/17/1 259/18/1 246/19/1 245/20/1
f 259/29/1 260/30/1 247/31/1 246/32/1
f 261/17/1 262/18/1 254/19/1 253/20/1
f 262/29/1 263/30/1 255/31/1 254/32/1
f 263/29/1 264/30/1 256/31/1 255/32/1
f 264/29/1 265/30/1 257/31/1 256/32/1
f 265/29/1 266/30/1 258/31/1 257/32/1
f 266/17/1 267/18/1 259/19/1 258/20/1
f 267/29/1 268/30/1 260/31/1 259/32/1
f 269/13/1 270/14/1 262/15/1 261/16/1
f 270/25/1 271/26/1 263/27/1 262/28/1
f 271/13/1 272/14/1 264/15/1 263/16/1
f 272/25/1 273/26/1 265/27/1 264/28/1
f 273/13/1 274/14/1 266/15/1 265/16/1
f 274/13/1 275/14/1 267/15/1 266/16/1
f 275/25/1 276/26/1 268/27/1 267/28/1
f 277/17/1 278/18/1 270/19/1 269/20/1
f 278/29/1 279/30/1 271/31/1 270/32/1
f 279/17/1 280/18/1 272/19/1 271/20/1
f 280/29/1 281/30/1 273/31/1 272/32/1
f 281/17/1 282/18/1 274/19/1 273/20/1
f 282/17/1 283/18/1 275/19/1 274/20/1
f 283/29/1 284/30/1 276/31/1 275/32/1

g mesh_0002
f 285/33/1 4/34/1 286/35/1 287/36/1
f 4/37/1 3/38/1 288/39/1 286/40/1
f 3/37/1 6/38/1 289/39/1 288/40/1
f 6/37/1 8/38/1 290/39/1 289/40/1
f 8/37/1 10/38/1 291/39/1 290/40/1
f 10/37/1 12/38/1 292/39/1 291/40/1
f 12/37/1 14/38/1 293/39/1 292/40/1
f 14/37/1 16/38/1 294/39/1 293/40/1
f 16/37/1 18/38/1 295/39/1 294/40/1
f 18/37/1 20/38/1 296/39/1 295/40/1
f 20/37/1 22/38/1 297/39/1 296/40/1
f 22/37/1 24/38/1 298/39/1 297/40/1
f 24/37/1 26/38/1 299/39/1 298/40/1
f 26/37/1 28/38/1 300/39/1 299/40/1
f 28/37/1 30/38/1 301/39/1 300/40/1
f 30/37/1 32/38/1 302/39/1 301/40/1
f 32/37/1 34/38/1 303/39/1 302/40/1
f 34/37/1 36/38/1 304/39/1 303/40/1
f 36/5/1 305/41/1 306/42/1 304/43/1
f 307/44/1 1/45/1 4/46/1 285/47/1
f 35/48/1 308/49/1 305/50/1 36/51/1
f 309/44/1 37/45/1 1/46/1 307/47/1
f 54/48/1 310/49/1 308/50/1 35/51/1
f 311/44/1 55/45/1 37/46/1 309/47/1
f 72/48/1 312/49/1 310/50/1 54/51/1
f 313/44/1 73/45/1 55/46/1 311/47/1
f 90/48/1 314/49/1 312/50/1 72/51/1
f 315/44/1 91/45/1 73/46/1 313/47/1
f 108/48/1 316/49/1 314/50/1 90/51/1
f 317/44/1 109/45/1 91/46/1 315/47/1
f 126/48/1 318/49/1 316/50/1 108/51/1
f 319/44/1 127/45/1 109/46/1 317/47/1
f 144/48/1 320/49/1 318/50/1 126/51/1
f 321/44/1 145/45/1 127/46/1 319/47/1
f 162/48/1 322/49/1 320/50/1 144/51/1
f 323/44/1 163/45/1 145/46/1 321/47/1
f 180/48/1 324/49/1 322/50/1 162/51/1
f 325/44/1 181/45/1 163/46/1 323/47/1
f 188/52/1 189/53/1 171/54/1 170/55/1
f 189/56/1 190/57/1 172/23/1 171/58/1
f 190/59/1 191/60/1 173/61/1 172/62/1
f 198/48/1 326/49/1 324/50/1 180/51/1
f 327/44/1 199/45/1 181/46/1 325/47/1
f 206/63/1 207/64/1 189/65/1 188/66/1
f 207/67/1 208/68/1 190/69/1 189/70/1
f 208/71/1 209/72/1 191/73/1 190/74/1
f 216/48/1 328/49/1 326/50/1 198/51/1
f 329/44/1 217/45/1 199/46/1 327/47/1
f 224/63/1 225/64/1 207/65/1 206/66/1
f 225/67/1 226/68/1 208/69/1 207/70/1
f 226/71/1 227/72/1 209/73/1 208/74/1
f 234/48/1 330/49/1 328/50/1 216/51/1
f 331/44/1 235/45/1 217/46/1 329/47/1
f 242/63/1 243/64/1 225/65/1 224/66/1
f 243/67/1 244/68/1 226/69/1 225/70/1
f 244/71/1 245/72/1 227/73/1 226/74/1
f 252/48/1 332/49/1 330/50/1 234/51/1
f 333/75/1 334/76/1 235/77/1 331/78/1
f 334/79/1 335/80/1 236/81/1 235/82/1
f 335/79/1 336/80/1 237/81/1 236/82/1
f 336/79/1 337/80/1 238/81/1 237/82/1
f 337/79/1 338/80/1 239/81/1 238/82/1
f 338/83/1 253/84/1 240/85/1 239/86/1
f 255/63/1 256/64/1 243/65/1 242/66/1
f 256/67/1 257/68/1 244/69/1 243/70/1
f 257/71/1 258/72/1 245/73/1 244/74/1
f 260/87/1 339/88/1 248/89/1 247/90/1
f 339/79/1 340/80/1 249/81/1 248/82/1
f 340/79/1 341/80/1 250/81/1 249/82/1
f 341/79/1 342/80/1 251/81/1 250/82/1
f 342/79/1 343/80/1 252/81/1 251/82/1
f 343/91/1 344/92/1 332/93/1 252/94/1
f 345/95/1 346/96/1 334/97/1 333/98/1
f 346/95/1 347/96/1 335/97/1 334/98/1
f 347/95/1 348/96/1 336/97/1 335/98/1
f 348/95/1 349/96/1 337/97/1 336/98/1
f 349/95/1 350/96/1 338/97/1 337/98/1
f 350/44/1 261/45/1 253/46/1 338/47/1
f 263/63/1 264/64/1 256/65/1 255/66/1
f 264/67/1 265/68/1 257/69/1 256/70/1
f 265/71/1 266/72/1 258/73/1 257/74/1
f 268/48/1 351/49/1 339/50/1 260/51/1
f 351/95/1 352/96/1 340/97/1 339/98/1
f 352/95/1 353/96/1 341/97/1 340/98/1
f 353/95/1 354/96/1 342/97/1 341/98/1
f 354/95/1 355/96/1 343/97/1 342/98/1
f 355/95/1 356/96/1 344/97/1 343/98/1
f 357/95/1 358/96/1 346/97/1 345/98/1
f 358/95/1 359/96/1 347/97/1 346/98/1
f 359/95/1 360/96/1 348/97/1 347/98/1
f 360/95/1 361/96/1 349/97/1 348/98/1
f 361/95/1 362/96/1 350/97/1 349/98/1
f 362/44/1 269/45/1 261/46/1 350/47/1
f 271/63/1 272/64/1 264/65/1 263/66/1
f 272/67/1 273/68/1 265/69/1 264/70/1
f 273/71/1 274/72/1 266/73/1 265/74/1
f 276/48/1 363/49/1 351/50/1 268/51/1
f 363/95/1 364/96/1 352/97/1 351/98/1
f 364/95/1 365/96/1 353/97/1 352/98/1
f 365/95/1 366/96/1 354/97/1 353/98/1
f 366/95/1 367/96/1 355/97/1 354/98/1
f 367/95/1 368/96/1 356/97/1 355/98/1
f 369/95/1 370/96/1 358/97/1 357/98/1
f 370/95/1 371/96/1 359/97/1 358/98/1
f 371/95/1 372/96/1 360/97/1 359/98/1
f 372/95/1 373/96/1 361/97/1 360/98/1
f 373/95/1 374/96/1 362/97/1 361/98/1
f 374/44/1 277/45/1 269/46/1 362/47/1
f 279/63/1 280/64/1 272/65/1 271/66/1
f 280/67/1 281/68/1 273/69/1 272/70/1
f 281/71/1 282/72/1 274/73/1 273/74/1
f 284/48/1 375/49/1 363/50/1 276/51/1
f 375/95/1 376/96/1 364/97/1 363/98/1
f 376/95/1 377/96/1 365/97/1 364/98/1
f 377/95/1 378/96/1 366/97/1 365/98/1
f 378/95/1 379/96/1 367/97/1 366/98/1
f 379/95/1 380/96/1 368/97/1 367/98/1
f 381/95/1 382/96/1 370/97/1 369/98/1
f 382/95/1 383/96/1 371/97/1 370/98/1
f 383/95/1 384/96/1 372/97/1 371/98/1
f 384/95/1 385/96/1 373/97/1 372/98/1
f 385/95/1 386/96/1 374/97/1 373/98/1
f 386/75/1 387/76/1 277/77/1 374/78/1
f 387/79/1 388/80/1 278/81/1 277/82/1
f 388/79/1 389/80/1 279/81/1 278/82/1
f 389/99/1 390/100/1 280/101/1 279/102/1
f 390/103/1 391/104/1 281/105/1 280/106/1
f 391/107/1 392/108/1 282/109/1 281/110/1
f 392/79/1 393/80/1 283/81/1 282/82/1
f 393/79/1 394/80/1 284/81/1 283/82/1
f 394/91/1 395/92/1 375/93/1 284/94/1
f 395/95/1 396/96/1 376/97/1 375/98/1
f 396/95/1 397/96/1 377/97/1 376/98/1
f 397/95/1 398/96/1 378/97/1 377/98/1
f 398/95/1 399/96/1 379/97/1 378/98/1
f 399/95/1 400/96/1 380/97/1 379/98/1

g mesh_0003
f 219/111/1 220/112/1 202/113/1 201/114/1
f 231/111/1 232/112/1 214/113/1 213/114/1
f 237/115/1 238/116/1 220/117/1 219/118/1
f 249/115/1 250/116/1 232/117/1 231/118/1

g mesh_0004
f 280/119/1 281/120/1 273/121/1 272/122/1
f 390/123/1 391/124/1 281/125/1 280/126/1

g mesh_0005
f 218/127/1 219/128/1 201/129/1 200/130/1
f 219/131/1 220/132/1 202/133/1 201/134/1
f 220/135/1 221/136/1 203/137/1 202/138/1
f 230/127/1 231/128/1 213/129/1 212/130/1
f 231/131/1 232/132/1 214/133/1 213/134/1
f 232/135/1 233/136/1 215/137/1 214/138/1
f 236/139/1 237/140/1 219/141/1 218/142/1
f 238/143/1 239/144/1 221/145/1 220/146/1
f 248/139/1 249/140/1 231/141/1 230/142/1
f 250/143/1 251/144/1 233/145/1 232/146/1

g mesh_0006
f 11/147/1 13/148/1 14/149/1 12/150/1
f 13/151/1 15/152/1 16/153/1 14/154/1
f 15/155/1 17/156/1 18/157/1 16/158/1
f 42/159/1 43/160/1 13/161/1 11/162/1
f 43/163/1 44/164/1 15/165/1 13/166/1
f 44/167/1 45/168/1 17/169/1 15/170/1
f 50/171/1 51/172/1 29/173/1 27/174/1
f 60/175/1 61/128/1 43/176/1 42/177/1
f 61/135/1 62/178/1 44/179/1 43/180/1
f 62/181/1 63/182/1 45/183/1 44/184/1

g mesh_0007
f 19/185/1 21/186/1 22/187/1 20/188/1
f 46/185/1 47/186/1 21/187/1 19/188/1
f 64/185/1 65/186/1 47/187/1 46/188/1
f 82/189/1 83/190/1 65/191/1 64/192/1
f 118/193/1 119/194/1 101/195/1 100/196/1
f 119/197/1 120/198/1 102/199/1 101/200/1
f 120/197/1 121/198/1 103/199/1 102/200/1
f 121/197/1 122/198/1 104/199/1 103/200/1
f 122/197/1 123/198/1 105/199/1 104/200/1
f 123/197/1 124/198/1 106/199/1 105/200/1
f 124/197/1 125/198/1 107/199/1 106/200/1
f 125/197/1 126/198/1 108/199/1 107/200/1
f 136/201/1 137/202/1 119/203/1 118/204/1
f 137/205/1 138/206/1 120/207/1 119/208/1
f 138/205/1 139/206/1 121/207/1 120/208/1
f 139/205/1 140/206/1 122/207/1 121/208/1
f 140/205/1 141/206/1 123/207/1 122/208/1
f 141/205/1 142/206/1 124/207/1 123/208/1
f 142/205/1 143/206/1 125/207/1 124/208/1
f 143/205/1 144/206/1 126/207/1 125/208/1
f 160/209/1 161/210/1 143/211/1 142/212/1
f 161/213/1 162/214/1 144/215/1 143/216/1
f 178/217/1 179/218/1 161/219/1 160/220/1
f 179/221/1 180/222/1 162/223/1 161/224/1
f 196/217/1 197/218/1 179/219/1 178/220/1
f 197/221/1 198/222/1 180/223/1 179/224/1
f 214/225/1 215/226/1 197/227/1 196/228/1
f 215/229/1 216/230/1 198/231/1 197/232/1

g mesh_0008
f 32/233/1 34/234/1 303/235/1 302/236/1
f 34/237/1 36/238/1 304/239/1 303/240/1
f 31/241/1 33/242/1 34/243/1 32/244/1
f 33/245/1 35/246/1 36/247/1 34/248/1
f 52/249/1 53/250/1 33/251/1 31/252/1
f 53/253/1 54/254/1 35/255/1 33/256/1
f 89/257/1 90/258/1 72/259/1 71/260/1
f 107/261/1 108/262/1 90/263/1 89/264/1
f 119/265/1 120/266/1 102/267/1 101/268/1
f 121/269/1 122/270/1 104/271/1 103/272/1
f 122/273/1 123/274/1 105/275/1 104/276/1
f 123/277/1 124/278/1 106/279/1 105/280/1
f 124/17/1 125/281/1 107/282/1 106/283/1
f 125/284/1 126/285/1 108/286/1 107/287/1

g mesh_0009
f 2/288/1 5/289/1 6/290/1 3/291/1
f 5/292/1 7/293/1 8/294/1 6/295/1
f 21/296/1 23/297/1 24/298/1 22/299/1
f 23/296/1 25/297/1 26/298/1 24/299/1
f 38/5/1 39/6/1 5/300/1 2/301/1
f 39/9/1 40/10/1 7/302/1 5/303/1
f 47/304/1 48/305/1 23/306/1 21/307/1
f 48/304/1 49/305/1 25/306/1 23/307/1
f 56/308/1 57/309/1 39/310/1 38/311/1
f 57/312/1 58/313/1 40/314/1 39/315/1
f 61/316/1 62/317/1 44/318/1 43/319/1
f 178/320/1 179/321/1 161/322/1 160/323/1
f 195/324/1 196/325/1 178/326/1 177/327/1
f 196/328/1 197/329/1 179/330/1 178/331/1
f 197/332/1 198/333/1 180/334/1 179/335/1

g mesh_0010
f 285/17/1 4/336/1 286/195/1 287/4/1
f 4/17/1 3/336/1 288/195/1 286/4/1
f 3/17/1 6/336/1 289/195/1 288/4/1
f 6/17/1 8/336/1 290/195/1 289/4/1
f 8/17/1 10/336/1 291/195/1 290/4/1
f 10/17/1 12/336/1 292/195/1 291/4/1
f 12/17/1 14/336/1 293/195/1 292/4/1
f 14/17/1 16/336/1 294/195/1 293/4/1
f 16/17/1 18/336/1 295/195/1 294/4/1
f 18/17/1 20/336/1 296/195/1 295/4/1
f 20/17/1 22/336/1 297/195/1 296/4/1
f 22/17/1 24/336/1 298/195/1 297/4/1
f 24/17/1 26/336/1 299/195/1 298/4/1
f 26/17/1 28/336/1 300/195/1 299/4/1
f 28/17/1 30/336/1 301/195/1 300/4/1
f 30/17/1 32/336/1 302/195/1 301/4/1
f 32/17/1 34/336/1 303/195/1 302/4/1
f 34/17/1 36/336/1 304/195/1 303/4/1
f 36/17/1 305/336/1 306/195/1 304/4/1
f 307/17/1 1/336/1 4/195/1 285/4/1
f 11/17/1 13/336/1 14/195/1 12/4/1
f 13/17/1 15/336/1 16/195/1 14/4/1
f 15/17/1 17/336/1 18/195/1 16/4/1
f 19/17/1 21/336/1 22/195/1 20/4/1
f 21/17/1 23/336/1 24/195/1 22/4/1
f 23/17/1 25/336/1 26/195/1 24/4/1
f 31/17/1 33/336/1 34/195/1 32/4/1
f 33/17/1 35/336/1 36/195/1 34/4/1
f 35/17/1 308/336/1 305/195/1 36/4/1
f 309/17/1 37/336/1 1/195/1 307/4/1
f 42/17/1 43/336/1 13/195/1 11/4/1
f 43/17/1 44/336/1 15/195/1 13/4/1
f 44/17/1 45/336/1 17/195/1 15/4/1
f 46/17/1 47/336/1 21/195/1 19/4/1
f 47/17/1 48/336/1 23/195/1 21/4/1
f 48/17/1 49/336/1 25/195/1 23/4/1
f 50/17/1 51/336/1 29/195/1 27/4/1
f 52/17/1 53/336/1 33/195/1 31/4/1
f 53/17/1 54/336/1 35/195/1 33/4/1
f 54/17/1 310/336/1 308/195/1 35/4/1
f 311/17/1 55/336/1 37/195/1 309/4/1
f 61/17/1 62/336/1 44/195/1 43/4/1
f 64/17/1 65/336/1 47/195/1 46/4/1
f 72/17/1 312/336/1 310/195/1 54/4/1
f 313/17/1 73/336/1 55/195/1 311/4/1
f 82/17/1 83/336/1 65/195/1 64/4/1
f 89/17/1 90/336/1 72/195/1 71/4/1
f 90/17/1 314/336/1 312/195/1 72/4/1
f 315/17/1 91/336/1 73/195/1 313/4/1
f 107/17/1 108/336/1 90/195/1 89/4/1
f 108/17/1 316/336/1 314/195/1 90/4/1
f 317/17/1 109/336/1 91/195/1 315/4/1
f 118/17/1 119/336/1 101/195/1 100/4/1
f 119/17/1 120/336/1 102/195/1 101/4/1
f 120/17/1 121/336/1 103/195/1 102/4/1
f 121/17/1 122/336/1 104/195/1 103/4/1
f 122/17/1 123/336/1 105/195/1 104/4/1
f 123/17/1 124/336/1 106/195/1 105/4/1
f 124/17/1 125/336/1 107/195/1 106/4/1
f 125/17/1 126/336/1 108/195/1 107/4/1
f 126/17/1 318/336/1 316/195/1 108/4/1
f 319/17/1 127/336/1 109/195/1 317/4/1
f 136/17/1 137/336/1 119/195/1 118/4/1
f 137/17/1 138/336/1 120/195/1 119/4/1
f 138/17/1 139/336/1 121/195/1 120/4/1
f 139/17/1 140/336/1 122/195/1 121/4/1
f 140/17/1 141/336/1 123/195/1 122/4/1
f 141/17/1 142/336/1 124/195/1 123/4/1
f 142/17/1 143/336/1 125/195/1 124/4/1
f 143/17/1 144/336/1 126/195/1 125/4/1
f 144/17/1 320/336/1 318/195/1 126/4/1
f 321/17/1 145/336/1 127/195/1 319/4/1
f 160/17/1 161/336/1 143/195/1 142/4/1
f 161/17/1 162/336/1 144/195/1 143/4/1
f 162/17/1 322/336/1 320/195/1 144/4/1
f 323/17/1 163/336/1 145/195/1 321/4/1
f 178/17/1 179/336/1 161/195/1 160/4/1
f 179/17/1 180/336/1 162/195/1 161/4/1
f 180/17/1 324/336/1 322/195/1 162/4/1
f 325/17/1 181/336/1 163/195/1 323/4/1
f 196/17/1 197/336/1 179/195/1 178/4/1
f 197/17/1 198/336/1 180/195/1 179/4/1
f 198/17/1 326/336/1 324/195/1 180/4/1
f 327/17/1 199/336/1 181/195/1 325/4/1
f 214/17/1 215/336/1 197/195/1 196/4/1
f 215/17/1 216/336/1 198/195/1 197/4/1
f 216/17/1 328/336/1 326/195/1 198/4/1
f 329/17/1 217/336/1 199/195/1 327/4/1
f 234/17/1 330/336/1 328/195/1 216/4/1
f 331/17/1 235/336/1 217/195/1 329/4/1
f 252/17/1 332/336/1 330/195/1 234/4/1
f 333/17/1 334/336/1 235/195/1 331/4/1
f 334/17/1 335/336/1 236/195/1 235/4/1
f 335/17/1 336/336/1 237/195/1 236/4/1
f 336/17/1 337/336/1 238/195/1 237/4/1
f 337/17/1 338/336/1 239/195/1 238/4/1
f 338/17/1 253/336/1 240/195/1 239/4/1
f 260/17/1 339/336/1 248/195/1 247/4/1
f 339/17/1 340/336/1 249/195/1 248/4/1
f 340/17/1 341/336/1 250/195/1 249/4/1
f 341/17/1 342/336/1 251/195/1 250/4/1
f 342/17/1 343/336/1 252/195/1 251/4/1
f 343/17/1 344/336/1 332/195/1 252/4/1
f 350/17/1 261/336/1 253/195/1 338/4/1
f 268/17/1 351/336/1 339/195/1 260/4/1
f 362/17/1 269/336/1 261/195/1 350/4/1
f 276/17/1 363/336/1 351/195/1 268/4/1
f 374/17/1 277/336/1 269/195/1 362/4/1
f 284/17/1 375/336/1 363/195/1 276/4/1
f 386/17/1 387/336/1 277/195/1 374/4/1
f 387/17/1 388/336/1 278/195/1 277/4/1
f 388/17/1 389/336/1 279/195/1 278/4/1
f 389/17/1 390/336/1 280/195/1 279/4/1
f 391/17/1 392/336/1 282/195/1 281/4/1
f 392/17/1 393/336/1 283/195/1 282/4/1
f 393/17/1 394/336/1 284/195/1 283/4/1
f 394/17/1 395/336/1 375/195/1 284/4/1

